…
what is the average order value by device types?

what is the average number of pages visited by purchasers and non-purchasers?

what is the average time on site for purchasers vs non-purchasers?

what is the average number of pages visited by purchasers and non-purchasers
using mobile?

Data

ecom <- readr::read_csv('https://raw.githubusercontent.com/rsquaredacademy/datasets/master/web.csv')
ecom

## # A tibble: 1,000 x 11
##       id referrer device bouncers n_visit n_pages duration country       
##    <int> <chr>    <chr>  <chr>      <int>   <dbl>    <dbl> <chr>         
##  1     1 google   laptop true          10    1.00    693   Czech Republic
##  2     2 yahoo    tablet true           9    1.00    459   Yemen         
##  3     3 direct   laptop true           0    1.00    996   Brazil        
##  4     4 bing     tablet false          3   18.0     468   China         
##  5     5 yahoo    mobile true           9    1.00    955   Poland        
##  6     6 yahoo    laptop false          5    5.00    135   South Africa  
##  7     7 yahoo    mobile true          10    1.00     75.0 Bangladesh    
##  8     8 direct   mobile true          10    1.00    908   Indonesia     
##  9     9 bing     mobile false          3   19.0     209   Netherlands   
## 10    10 google   mobile true           6    1.00    208   Czech Republic
## # ... with 990 more rows, and 3 more variables: purchase <chr>,
## #   order_items <dbl>, order_value <dbl>
…
In order to compute the AOV, we must first separate the purchasers from
non-purchasers. We will do this by filtering the data related to purchasers
using the filter() function. It allows us to filter rows that meet a specific
criteria/condition. The first argument is the name of the data frame and the
rest of the arguments are expressions for filtering the data. Let us look at a
few examples:

The first example we will look at filters all visits from device mobile. As
we had learnt in the previous section, the first argument is our data set ecom
and the next argument is the condition for filtering rows.

filter(ecom, device == "mobile")

## # A tibble: 344 x 11
##       id referrer device bouncers n_visit n_pages duration country       
##    <int> <chr>    <chr>  <chr>      <int>   <dbl>    <dbl> <chr>         
##  1     5 yahoo    mobile true           9    1.00    955   Poland        
##  2     7 yahoo    mobile true          10    1.00     75.0 Bangladesh    
##  3     8 direct   mobile true          10    1.00    908   Indonesia     
##  4     9 bing     mobile false          3   19.0     209   Netherlands   
##  5    10 google   mobile true           6    1.00    208   Czech Republic
##  6    13 direct   mobile false          9   14.0     406   Ireland       
##  7    15 yahoo    mobile false          7    1.00     19.0 France        
##  8    22 google   mobile true           5    1.00    147   Brazil        
##  9    23 bing     mobile false          0    7.00    196   Russia        
## 10    29 google   mobile true          10    1.00    338   Russia        
## # ... with 334 more rows, and 3 more variables: purchase <chr>,
## #   order_items <dbl>, order_value <dbl>

We can specify multiple filtering conditions as well. In the below example, we
specify two filter conditions:

visit from device tablet

resulted in a purchase or conversion

filter(ecom, device == "tablet", purchase == "true")

## # A tibble: 36 x 11
##       id referrer device bouncers n_visit n_pages duration country    
##    <int> <chr>    <chr>  <chr>      <int>   <dbl>    <dbl> <chr>      
##  1     4 bing     tablet false          3    18.0      468 China      
##  2    17 bing     tablet false          5    16.0      368 Peru       
##  3    19 social   tablet false          7    10.0      290 Colombia   
##  4    27 direct   tablet false          2    19.0      342 Japan      
##  5    34 social   tablet false          9    20.0      420 Indonesia  
##  6    94 yahoo    tablet false          2    16.0      480 China      
##  7   101 yahoo    tablet false          2    14.0      364 Poland     
##  8   158 google   tablet false          7    12.0      324 Philippines
##  9   166 direct   tablet false          6    20.0      580 Sudan      
## 10   221 direct   tablet false          6    19.0      304 Indonesia  
## # ... with 26 more rows, and 3 more variables: purchase <chr>,
## #   order_items <dbl>, order_value <dbl>
…
Case Study

Let us apply what we have learnt to the case study. We want to filter all
visits that resulted in a purchase.

filter(ecom, purchase == "true")

## # A tibble: 103 x 11
##       id referrer device bouncers n_visit n_pages duration country       
##    <int> <chr>    <chr>  <chr>      <int>   <dbl>    <dbl> <chr>         
##  1     4 bing     tablet false          3    18.0      468 China         
##  2    13 direct   mobile false          9    14.0      406 Ireland       
##  3    17 bing     tablet false          5    16.0      368 Peru          
##  4    19 social   tablet false          7    10.0      290 Colombia      
##  5    27 direct   tablet false          2    19.0      342 Japan         
##  6    34 social   tablet false          9    20.0      420 Indonesia     
##  7    41 bing     mobile false          4    20.0      440 Czech Republic
##  8    94 yahoo    tablet false          2    16.0      480 China         
##  9    98 bing     mobile false          3    18.0      288 Portugal      
## 10   101 yahoo    tablet false          2    14.0      364 Poland        
## # ... with 93 more rows, and 3 more variables: purchase <chr>,
## #   order_items <dbl>, order_value <dbl>

Select Columns

After filtering the data, we need to select relevent variables to compute the
AOV. Remember, we do not need all the columns in the data to compute a required
metric (in our case, AOV). The select() function allows us to select a subset
of columns. The first argument is the name of the data frame and the subsequent
arguments specify the columns by name or position.

To select the device and purchase columns, we specify the data set i.e.
ecom followed by the name of the columns.

select(ecom, device, purchase)

## # A tibble: 1,000 x 2
##    device purchase
##    <chr>  <chr>   
##  1 laptop false   
##  2 tablet false   
##  3 laptop false   
##  4 tablet true    
##  5 mobile false   
##  6 laptop false   
##  7 mobile false   
##  8 mobile false   
##  9 mobile false   
## 10 mobile false   
## # ... with 990 more rows

We can select a set of columns using :. In the below example, we select all
the columns starting from device up to purchase. Remember that we can use : only when
the columns are adjacent to each other in the data set.

select(ecom, device:purchase)

## # A tibble: 1,000 x 7
##    device bouncers n_visit n_pages duration country        purchase
##    <chr>  <chr>      <int>   <dbl>    <dbl> <chr>          <chr>   
##  1 laptop true          10    1.00    693   Czech Republic false   
##  2 tablet true           9    1.00    459   Yemen          false   
##  3 laptop true           0    1.00    996   Brazil         false   
##  4 tablet false          3   18.0     468   China          true    
##  5 mobile true           9    1.00    955   Poland         false   
##  6 laptop false          5    5.00    135   South Africa   false   
##  7 mobile true          10    1.00     75.0 Bangladesh     false   
##  8 mobile true          10    1.00    908   Indonesia      false   
##  9 mobile false          3   19.0     209   Netherlands    false   
## 10 mobile true           6    1.00    208   Czech Republic false   
## # ... with 990 more rows

What if you want to select all columns except a few? Typing the name of many
columns can be cumbersome and may also result in spelling errors. We may use :
only if the columns are adjacent to each other but that may not always be
the case. dplyr allows us to specify columns that need not be
selected using -. In the below example, we select all columns except id and
country. Notice the - before both of them.

select(ecom, -id, -country)

## # A tibble: 1,000 x 9
##    referrer device bouncers n_visit n_pages duration purchase order_items
##    <chr>    <chr>  <chr>      <int>   <dbl>    <dbl> <chr>          <dbl>
##  1 google   laptop true          10    1.00    693   false           0   
##  2 yahoo    tablet true           9    1.00    459   false           0   
##  3 direct   laptop true           0    1.00    996   false           0   
##  4 bing     tablet false          3   18.0     468   true            6.00
##  5 yahoo    mobile true           9    1.00    955   false           0   
##  6 yahoo    laptop false          5    5.00    135   false           0   
##  7 yahoo    mobile true          10    1.00     75.0 false           0   
##  8 direct   mobile true          10    1.00    908   false           0   
##  9 bing     mobile false          3   19.0     209   false           0   
## 10 google   mobile true           6    1.00    208   false           0   
## # ... with 990 more rows, and 1 more variable: order_value <dbl>

Case Study

For our case study, we need to select the columns order_value and order_items
to calculate the AOV. We also need to select the device column as we are
computing the AOV for each device type.

select(ecom, device, order_value, order_items)

## # A tibble: 1,000 x 3
##    device order_value order_items
##    <chr>        <dbl>       <dbl>
##  1 laptop           0        0   
##  2 tablet           0        0   
##  3 laptop           0        0   
##  4 tablet         434        6.00
##  5 mobile           0        0   
##  6 laptop           0        0   
##  7 mobile           0        0   
##  8 mobile           0        0   
##  9 mobile           0        0   
## 10 mobile           0        0   
## # ... with 990 more rows

But we want the above data only for purchasers. Let us combine filter() and
select() functions to extract order_value and order_items only for those
visis that resulted in a purchase.

# filter all visits that resulted in a purchase
ecom1 <- filter(ecom, purchase == "true")

# select the relevant columns
ecom2 <- select(ecom1, device, order_value, order_items)

# view data
ecom2

## # A tibble: 103 x 3
##    device order_value order_items
##    <chr>        <dbl>       <dbl>
##  1 tablet         434        6.00
##  2 mobile         651        3.00
##  3 tablet        1049        6.00
##  4 tablet        1304        9.00
##  5 tablet         622        5.00
##  6 tablet        1613        7.00
##  7 mobile         184        3.00
##  8 tablet         286        9.00
##  9 mobile         764        6.00
## 10 tablet        1667        6.00
## # ... with 93 more rows
Grouping Data

We need to compute the total order value and total order items for each device
in order to compute their AOV. To achieve this, we need to group the selected
order_value and order_items by device type. group_by() allows us to group
or split data based on particular (discrete) variable. The first argument is the
name of the data set and the second argument is the name of the column based on
which the data will be split.

To split the data by referrer type, we use group_by and specify the data set
i.e. ecom and the column based on which to split the data i.e. referrer.

group_by(ecom, referrer)

## # A tibble: 1,000 x 11
## # Groups:   referrer [5]
##       id referrer device bouncers n_visit n_pages duration country       
##    <int> <chr>    <chr>  <chr>      <int>   <dbl>    <dbl> <chr>         
##  1     1 google   laptop true          10    1.00    693   Czech Republic
##  2     2 yahoo    tablet true           9    1.00    459   Yemen         
##  3     3 direct   laptop true           0    1.00    996   Brazil        
##  4     4 bing     tablet false          3   18.0     468   China         
##  5     5 yahoo    mobile true           9    1.00    955   Poland        
##  6     6 yahoo    laptop false          5    5.00    135   South Africa  
##  7     7 yahoo    mobile true          10    1.00     75.0 Bangladesh    
##  8     8 direct   mobile true          10    1.00    908   Indonesia     
##  9     9 bing     mobile false          3   19.0     209   Netherlands   
## 10    10 google   mobile true           6    1.00    208   Czech Republic
## # ... with 990 more rows, and 3 more variables: purchase <chr>,
## #   order_items <dbl>, order_value <dbl>

Case Study

In the second line in the previous output, you can observe Groups: referrer [5]
. The data is split into 5 groups as the referrer variable has 5 distinct values.
For our case study, we need to group the data by device type.

# split ecom2 by device type
ecom3 <- group_by(ecom2, device)
ecom3

## # A tibble: 103 x 3
## # Groups:   device [3]
##    device order_value order_items
##    <chr>        <dbl>       <dbl>
##  1 tablet         434        6.00
##  2 mobile         651        3.00
##  3 tablet        1049        6.00
##  4 tablet        1304        9.00
##  5 tablet         622        5.00
##  6 tablet        1613        7.00
##  7 mobile         184        3.00
##  8 tablet         286        9.00
##  9 mobile         764        6.00
## 10 tablet        1667        6.00
## # ... with 93 more rows
…
Create Columns

To create a new column, we will use mutate(). The first argument is the name
of the data set and the subsequent arguments are expressions for creating new
columns based out of existing columns.

Let us add a new column avg_page_time i.e. time on site divided by number of
pages visited.

# select duration and n_pages from ecom
mutate_1 <- select(ecom, n_pages, duration)
mutate(mutate_1, avg_page_time = duration / n_pages)

## # A tibble: 1,000 x 3
##    n_pages duration avg_page_time
##      <dbl>    <dbl>         <dbl>
##  1    1.00    693           693  
##  2    1.00    459           459  
##  3    1.00    996           996  
##  4   18.0     468            26.0
##  5    1.00    955           955  
##  6    5.00    135            27.0
##  7    1.00     75.0          75.0
##  8    1.00    908           908  
##  9   19.0     209            11.0
## 10    1.00    208           208  
## # ... with 990 more rows

We can create new columns based on other columns created using mutate. Let us
create another column sqrt_avg_page_time i.e. square root of the average time
on page using avg_page_time.

mutate(mutate_1,
       avg_page_time = duration / n_pages,
       sqrt_avg_page_time = sqrt(avg_page_time))

## # A tibble: 1,000 x 4
##    n_pages duration avg_page_time sqrt_avg_page_time
##      <dbl>    <dbl>         <dbl>              <dbl>
##  1    1.00    693           693                26.3 
##  2    1.00    459           459                21.4 
##  3    1.00    996           996                31.6 
##  4   18.0     468            26.0               5.10
##  5    1.00    955           955                30.9 
##  6    5.00    135            27.0               5.20
##  7    1.00     75.0          75.0               8.66
##  8    1.00    908           908                30.1 
##  9   19.0     209            11.0               3.32
## 10    1.00    208           208                14.4 
## # ... with 990 more rows
…
Arrange Data

Arranging data in ascending or descending order is one of the most common tasks
in data manipulation. We can use arrange to arrange data by different columns.
Let us say we want to arrange data by the number of pages browsed.

arrange(ecom, n_pages)

## # A tibble: 1,000 x 11
##       id referrer device bouncers n_visit n_pages duration country       
##    <int> <chr>    <chr>  <chr>      <int>   <dbl>    <dbl> <chr>         
##  1     1 google   laptop true          10    1.00    693   Czech Republic
##  2     2 yahoo    tablet true           9    1.00    459   Yemen         
##  3     3 direct   laptop true           0    1.00    996   Brazil        
##  4     5 yahoo    mobile true           9    1.00    955   Poland        
##  5     7 yahoo    mobile true          10    1.00     75.0 Bangladesh    
##  6     8 direct   mobile true          10    1.00    908   Indonesia     
##  7    10 google   mobile true           6    1.00    208   Czech Republic
##  8    11 direct   laptop true           9    1.00    738   Jamaica       
##  9    15 yahoo    mobile false          7    1.00     19.0 France        
## 10    16 bing     laptop true           1    1.00    995   United States 
## # ... with 990 more rows, and 3 more variables: purchase <chr>,
## #   order_items <dbl>, order_value <dbl>

If we want to arrange the data in descending order, we can use desc(). Let us
arrange the data in descending order.

arrange(ecom , desc(n_pages))

## # A tibble: 1,000 x 11
##       id referrer device bouncers n_visit n_pages duration country       
##    <int> <chr>    <chr>  <chr>      <int>   <dbl>    <dbl> <chr>         
##  1    34 social   tablet false          9    20.0      420 Indonesia     
##  2    41 bing     mobile false          4    20.0      440 Czech Republic
##  3   136 yahoo    tablet false          0    20.0      200 Indonesia     
##  4   166 direct   tablet false          6    20.0      580 Sudan         
##  5   219 social   mobile false          1    20.0      520 United States 
##  6   253 google   mobile false          8    20.0      300 Sweden        
##  7   276 social   laptop false          4    20.0      200 Indonesia     
##  8   314 yahoo    mobile false          3    20.0      480 China         
##  9   348 social   laptop false         10    20.0      280 Japan         
## 10   373 yahoo    mobile false          2    20.0      240 Portugal      
## # ... with 990 more rows, and 3 more variables: purchase <chr>,
## #   order_items <dbl>, order_value <dbl>

Data can be arranged by multiple variables as well. Let us arrange data first by
number of visits and then by number of pages in a descending order.

arrange(ecom, n_visit, desc(n_pages))

## # A tibble: 1,000 x 11
##       id referrer device bouncers n_visit n_pages duration country  
##    <int> <chr>    <chr>  <chr>      <int>   <dbl>    <dbl> <chr>    
##  1   136 yahoo    tablet false          0    20.0      200 Indonesia
##  2   448 google   laptop false          0    19.0      418 Ukraine  
##  3   402 bing     laptop false          0    18.0      180 Russia   
##  4   642 yahoo    laptop false          0    18.0      522 Syria    
##  5   884 direct   tablet false          0    18.0      252 Brazil   
##  6   651 social   laptop false          0    17.0      204 China    
##  7   749 bing     laptop false          0    17.0      272 Indonesia
##  8   886 bing     mobile false          0    16.0      272 Peru     
##  9   871 yahoo    mobile false          0    15.0      255 China    
## 10   988 direct   laptop false          0    15.0      255 Indonesia
## # ... with 990 more rows, and 3 more variables: purchase <chr>,
## #   order_items <dbl>, order_value <dbl>
…
