…
library(dplyr)
library(readr)

Case Study

Let us look at a case study (e-commerce data) and see how we can use dplyr
helper functions to answer questions we have about and to modify/transform the
underlying data set.

Data

ecom <- readr::read_csv('https://raw.githubusercontent.com/rsquaredacademy/datasets/master/web.csv')
ecom

## # A tibble: 1,000 x 11
##       id referrer device bouncers n_visit n_pages duration country       
##    <int> <chr>    <chr>  <chr>      <int>   <dbl>    <dbl> <chr>         
##  1     1 google   laptop true          10    1.00    693   Czech Republic
##  2     2 yahoo    tablet true           9    1.00    459   Yemen         
##  3     3 direct   laptop true           0    1.00    996   Brazil        
##  4     4 bing     tablet false          3   18.0     468   China         
##  5     5 yahoo    mobile true           9    1.00    955   Poland        
##  6     6 yahoo    laptop false          5    5.00    135   South Africa  
##  7     7 yahoo    mobile true          10    1.00     75.0 Bangladesh    
##  8     8 direct   mobile true          10    1.00    908   Indonesia     
##  9     9 bing     mobile false          3   19.0     209   Netherlands   
## 10    10 google   mobile true           6    1.00    208   Czech Republic
## # ... with 990 more rows, and 3 more variables: purchase <chr>,
## #   order_items <dbl>, order_value <dbl>
…
Sampling Data

dplyr offers sampling functions which allow us to specify either the
number or percentage of observations. sample_n() allows sampling a specific
number of observations.

ecom %>%
  sample_n(700)

## # A tibble: 700 x 11
##       id referrer device bouncers n_visit n_pages duration country      
##    <int> <chr>    <chr>  <chr>      <int>   <dbl>    <dbl> <chr>        
##  1    86 yahoo    tablet true           0    1.00    824   Austria      
##  2   679 yahoo    laptop true           3    1.00    541   Thailand     
##  3   220 social   tablet false          6    6.00    108   Portugal     
##  4   187 bing     laptop false          1    2.00     22.0 Brazil       
##  5    16 bing     laptop true           1    1.00    995   United States
##  6   612 social   mobile false          1   16.0     336   Philippines  
##  7   464 google   tablet true           8    1.00    414   Yemen        
##  8   242 bing     mobile false         10   13.0     221   China        
##  9   625 social   mobile false          7    8.00    216   Tanzania     
## 10   370 social   tablet false          2    8.00    208   Azerbaijan   
## # ... with 690 more rows, and 3 more variables: purchase <chr>,
## #   order_items <dbl>, order_value <dbl>

We can combine the sampling functions with other dplyr functions as shown below
where we sample observation after grouping them according to the source of
traffic.

ecom %>%
  group_by(referrer) %>%
  sample_n(100)

## # A tibble: 500 x 11
## # Groups:   referrer [5]
##       id referrer device bouncers n_visit n_pages duration country        
##    <int> <chr>    <chr>  <chr>      <int>   <dbl>    <dbl> <chr>          
##  1   540 bing     tablet true           7    1.00      718 Thailand       
##  2   749 bing     laptop false          0   17.0       272 Indonesia      
##  3    47 bing     mobile true           6    1.00      843 Sweden         
##  4    69 bing     tablet true           1    1.00      406 Turkmenistan   
##  5   181 bing     mobile true           9    1.00      650 Poland         
##  6   293 bing     mobile true          10    1.00      480 Panama         
##  7   329 bing     mobile true           3    1.00      490 Sweden         
##  8    97 bing     tablet true           2    1.00      292 Democratic Rep~
##  9   584 bing     mobile true           0    1.00      686 Uzbekistan     
## 10   888 bing     tablet false         10   17.0       442 China          
## # ... with 490 more rows, and 3 more variables: purchase <chr>,
## #   order_items <dbl>, order_value <dbl>

sample_frac() allows a specific percentage of observations.

ecom %>%
  sample_frac(size = 0.7)

## # A tibble: 700 x 11
##       id referrer device bouncers n_visit n_pages duration country    
##    <int> <chr>    <chr>  <chr>      <int>   <dbl>    <dbl> <chr>      
##  1   863 social   tablet true           5    1.00      387 China      
##  2   445 social   tablet false          2   12.0       300 Philippines
##  3   973 social   mobile true           4    1.00      305 Peru       
##  4   955 google   mobile true           6    1.00      965 Netherlands
##  5   803 yahoo    laptop true           8    1.00      630 Israel     
##  6   238 yahoo    mobile true           1    1.00      257 Brazil     
##  7    25 yahoo    laptop true           1    1.00      779 Brazil     
##  8   295 bing     laptop false         10   16.0       304 Poland     
##  9   454 direct   tablet true          10    1.00      970 Syria      
## 10   369 social   laptop true           2    1.00      341 Indonesia  
## # ... with 690 more rows, and 3 more variables: purchase <chr>,
## #   order_items <dbl>, order_value <dbl>
…
case_when() is an alternative to if else. It allows us to lay down the
conditions clearly and makes the code more readable. In the below example, we
create a new column repeat_visit from n_visit (the number of previous visits).

ecom %>%
  mutate(
    repeat_visit = case_when(
      n_visit > 0 ~ TRUE,
      TRUE ~ FALSE
    )
  ) %>%
  select(n_visit, repeat_visit) 

## # A tibble: 1,000 x 2
##    n_visit repeat_visit
##      <int> <lgl>       
##  1      10 T           
##  2       9 T           
##  3       0 F           
##  4       3 T           
##  5       9 T           
##  6       5 T           
##  7      10 T           
##  8      10 T           
##  9       3 T           
## 10       6 T           
## # ... with 990 more rows
