…
ggplot2

All the data sets used in this post can be found here
and code can be downloaded from here.

Data

ecom <- read_csv('https://raw.githubusercontent.com/rsquaredacademy/datasets/master/ecom.csv',
  col_types = list(col_factor(levels = c('Desktop', 'Mobile', 'Tablet')), 
  col_factor(levels = c(TRUE, FALSE)), col_factor(levels = c(TRUE, FALSE)), 
  col_factor(levels = c('Affiliates', 'Direct', 'Display', 'Organic', 'Paid', 'Referral', 'Social'))))
ecom

## # A tibble: 5,000 x 4
##    device  bouncers purchase referrer  
##    <fct>   <fct>    <fct>    <fct>     
##  1 Desktop FALSE    FALSE    Affiliates
##  2 Mobile  FALSE    FALSE    Affiliates
##  3 Desktop TRUE     FALSE    Organic   
##  4 Desktop FALSE    FALSE    Organic   
##  5 Mobile  TRUE     FALSE    Direct    
##  6 Desktop TRUE     FALSE    Direct    
##  7 Desktop FALSE    FALSE    Referral  
##  8 Tablet  TRUE     FALSE    Organic   
##  9 Mobile  TRUE     FALSE    Social    
## 10 Desktop TRUE     FALSE    Organic   
## # ... with 4,990 more rows
…
