…
group referrers with traffic below a threshold into a single category

Data

ecom <- read_csv('https://raw.githubusercontent.com/rsquaredacademy/datasets/master/web.csv',
                 col_types = list(col_integer(), 
                                  col_factor(levels = c("bing", "direct", "social", "yahoo", "google")), 
                                  col_factor(levels = c("laptop", "mobile", "tablet")), 
                                  col_logical(), col_number(),
                                  col_number(), col_number(), col_character(), 
                                  col_logical(), col_number(), col_number()))

ecom

## # A tibble: 1,000 x 11
##       id referrer device bouncers n_visit n_pages duration country       
##    <int> <fct>    <fct>  <lgl>      <dbl>   <dbl>    <dbl> <chr>         
##  1     1 google   laptop T          10.0     1.00    693   Czech Republic
##  2     2 yahoo    tablet T           9.00    1.00    459   Yemen         
##  3     3 direct   laptop T           0       1.00    996   Brazil        
##  4     4 bing     tablet F           3.00   18.0     468   China         
##  5     5 yahoo    mobile T           9.00    1.00    955   Poland        
##  6     6 yahoo    laptop F           5.00    5.00    135   South Africa  
##  7     7 yahoo    mobile T          10.0     1.00     75.0 Bangladesh    
##  8     8 direct   mobile T          10.0     1.00    908   Indonesia     
##  9     9 bing     mobile F           3.00   19.0     209   Netherlands   
## 10    10 google   mobile T           6.00    1.00    208   Czech Republic
## # ... with 990 more rows, and 3 more variables: purchase <lgl>,
## #   order_items <dbl>, order_value <dbl>
…
Case Study 2

Data

traffic <- readr::read_csv('https://raw.githubusercontent.com/rsquaredacademy/datasets/master/web_traffic.csv',
  col_types = list(col_factor(levels = c("affiliates", "bing", "direct", "facebook", "yahoo", "google",
    "instagram", "twitter", "unknown"))))

traffic

## # A tibble: 48,232 x 1
##    traffics
##    <fct>   
##  1 google  
##  2 google  
##  3 google  
##  4 google  
##  5 google  
##  6 google  
##  7 google  
##  8 google  
##  9 google  
## 10 google  
## # ... with 48,222 more rows
…
