…
group referrers with traffic below a threshold into a single category

Data

ecom <- read_csv('https://raw.githubusercontent.com/rsquaredacademy/datasets/master/web.csv',
                 col_types = list(col_integer(), 
                                  col_factor(levels = c("bing", "direct", "social", "yahoo", "google")), 
                                  col_factor(levels = c("laptop", "mobile", "tablet")), 
                                  col_logical(), col_number(),
                                  col_number(), col_number(), col_character(), 
                                  col_logical(), col_number(), col_number()))

ecom

## # A tibble: 1,000 x 11
##       id referrer device bouncers n_visit n_pages duration country       
##    <int> <fct>    <fct>  <lgl>      <dbl>   <dbl>    <dbl> <chr>         
##  1     1 google   laptop TRUE          10       1      693 Czech Republic
##  2     2 yahoo    tablet TRUE           9       1      459 Yemen         
##  3     3 direct   laptop TRUE           0       1      996 Brazil        
##  4     4 bing     tablet FALSE          3      18      468 China         
##  5     5 yahoo    mobile TRUE           9       1      955 Poland        
##  6     6 yahoo    laptop FALSE          5       5      135 South Africa  
##  7     7 yahoo    mobile TRUE          10       1       75 Bangladesh    
##  8     8 direct   mobile TRUE          10       1      908 Indonesia     
##  9     9 bing     mobile FALSE          3      19      209 Netherlands   
## 10    10 google   mobile TRUE           6       1      208 Czech Republic
## # ... with 990 more rows, and 3 more variables: purchase <lgl>,
## #   order_items <dbl>, order_value <dbl>
…
Case Study 2

Data

traffic <- readr::read_csv('https://raw.githubusercontent.com/rsquaredacademy/datasets/master/web_traffic.csv',
  col_types = list(col_factor(levels = c("affiliates", "bing", "direct", "facebook", "yahoo", "google",
    "instagram", "twitter", "unknown"))))

traffic

## # A tibble: 48,232 x 1
##    traffics
##    <fct>   
##  1 google  
##  2 google  
##  3 google  
##  4 google  
##  5 google  
##  6 google  
##  7 google  
##  8 google  
##  9 google  
## 10 google  
## # ... with 48,222 more rows
…
fct_relevel(traffics, "facebook", after = Inf) %>%
  levels()

## [1] "affiliates" "bing"       "direct"     "yahoo"      "google"    
## [6] "instagram"  "twitter"    "unknown"    "facebook"

Data

response

## # A tibble: 1,000 x 1
##    response        
##    <ord>           
##  1 dislike         
##  2 like somewhat   
##  3 dislike         
##  4 neutral         
##  5 dislike         
##  6 like somewhat   
##  7 like somewhat   
##  8 like somewhat   
##  9 dislike somewhat
## 10 neutral         
## # ... with 990 more rows
…
