…
extract image dimension from url

extract extension from domain name

extract http protocol from url

extract file type from url

Data

mockstring <- readr::read_csv('https://raw.githubusercontent.com/rsquaredacademy/datasets/master/mock_strings.csv')
mockstring

## # A tibble: 1,000 x 12
##       id image_url  domain imageurl email filename phone address url      
##    <int> <chr>      <chr>  <chr>    <chr> <chr>    <chr> <chr>   <chr>    
##  1     1 https://r~ addto~ http://~ mnew~ PedeMal~ 66-(~ 8 Anha~ https://~
##  2     2 https://r~ gmpg.~ http://~ mdan~ Loborti~ 351-~ 697 Ea~ http://d~
##  3     3 https://r~ samsu~ http://~ hgir~ CongueD~ 33-(~ 89 Dot~ https://~
##  4     4 https://r~ spoti~ http://~ pmcm~ Eleifen~ 86-(~ 98135 ~ http://i~
##  5     5 https://r~ wunde~ http://~ dris~ PurusPh~ 223-~ 7814 P~ https://~
##  6     6 https://r~ alexa~ http://~ cphl~ Element~ 420-~ 4897 L~ https://~
##  7     7 https://r~ googl~ http://~ kdod~ Mattis.~ 1-(7~ 53541 ~ http://v~
##  8     8 https://r~ ed.gov http://~ vhou~ PurusEu~ 62-(~ 4819 H~ https://~
##  9     9 https://r~ jigsy~ http://~ rdik~ JustoEt~ 1-(6~ 68096 ~ https://~
## 10    10 https://r~ jugem~ http://~ tdud~ Ante.ti~ 30-(~ 9595 S~ https://~
## # ... with 990 more rows, and 3 more variables: full_name <chr>,
## #   currency <chr>, passwords <chr>
…
