…
We will use the following libraries in this post:

readr

ggplot2

All the data sets used in this post can be found here
and code can be downloaded from here.

Data

ecom <- readr::read_csv('https://raw.githubusercontent.com/rsquaredacademy/datasets/master/web.csv')
ecom

## # A tibble: 1,000 x 11
##       id referrer device bouncers n_visit n_pages duration country purchase
##    <dbl> <chr>    <chr>  <lgl>      <dbl>   <dbl>    <dbl> <chr>   <lgl>   
##  1     1 google   laptop TRUE          10       1      693 Czech ~ FALSE   
##  2     2 yahoo    tablet TRUE           9       1      459 Yemen   FALSE   
##  3     3 direct   laptop TRUE           0       1      996 Brazil  FALSE   
##  4     4 bing     tablet FALSE          3      18      468 China   TRUE    
##  5     5 yahoo    mobile TRUE           9       1      955 Poland  FALSE   
##  6     6 yahoo    laptop FALSE          5       5      135 South ~ FALSE   
##  7     7 yahoo    mobile TRUE          10       1       75 Bangla~ FALSE   
##  8     8 direct   mobile TRUE          10       1      908 Indone~ FALSE   
##  9     9 bing     mobile FALSE          3      19      209 Nether~ FALSE   
## 10    10 google   mobile TRUE           6       1      208 Czech ~ FALSE   
## # ... with 990 more rows, and 2 more variables: order_items <dbl>,
## #   order_value <dbl>
…
