…
## Warning in read_tokens_(data, tokenizer, col_specs, col_names, locale_, :
## length of NULL cannot be changed

## Warning in read_tokens_(data, tokenizer, col_specs, col_names, locale_, :
## length of NULL cannot be changed

## Warning in read_tokens_(data, tokenizer, col_specs, col_names, locale_, :
## length of NULL cannot be changed

ecom

## # A tibble: 1,000 x 8
##    referrer device n_visit n_pages duration purchase order_items
##    <fct>    <fct>    <dbl>   <dbl>    <dbl> <lgl>          <dbl>
##  1 google   laptop      10       1      693 FALSE              0
##  2 yahoo    tablet       9       1      459 FALSE              0
##  3 direct   laptop       0       1      996 FALSE              0
##  4 bing     tablet       3      18      468 TRUE               6
##  5 yahoo    mobile       9       1      955 FALSE              0
##  6 yahoo    laptop       5       5      135 FALSE              0
##  7 yahoo    mobile      10       1       75 FALSE              0
##  8 direct   mobile      10       1      908 FALSE              0
##  9 bing     mobile       3      19      209 FALSE              0
## 10 google   mobile       6       1      208 FALSE              0
## # ... with 990 more rows, and 1 more variable: order_value <dbl>
…
filter(ecom, device == "mobile")

## # A tibble: 344 x 8
##    referrer device n_visit n_pages duration purchase order_items
##    <fct>    <fct>    <dbl>   <dbl>    <dbl> <lgl>          <dbl>
##  1 yahoo    mobile       9       1      955 FALSE              0
##  2 yahoo    mobile      10       1       75 FALSE              0
##  3 direct   mobile      10       1      908 FALSE              0
##  4 bing     mobile       3      19      209 FALSE              0
##  5 google   mobile       6       1      208 FALSE              0
##  6 direct   mobile       9      14      406 TRUE               3
##  7 yahoo    mobile       7       1       19 FALSE              7
##  8 google   mobile       5       1      147 FALSE              0
##  9 bing     mobile       0       7      196 FALSE              4
## 10 google   mobile      10       1      338 FALSE              0
## # ... with 334 more rows, and 1 more variable: order_value <dbl>
…
filter(ecom, device == "mobile", purchase)

## # A tibble: 36 x 8
##    referrer device n_visit n_pages duration purchase order_items
##    <fct>    <fct>    <dbl>   <dbl>    <dbl> <lgl>          <dbl>
##  1 direct   mobile       9      14      406 TRUE               3
##  2 bing     mobile       4      20      440 TRUE               3
##  3 bing     mobile       3      18      288 TRUE               6
##  4 social   mobile      10      11      242 TRUE               4
##  5 yahoo    mobile       6      14      322 TRUE               3
##  6 google   mobile       1      18      252 TRUE               3
##  7 social   mobile       7      16      352 TRUE              10
##  8 direct   mobile       4      18      324 TRUE               3
##  9 social   mobile       1      20      520 TRUE               5
## 10 yahoo    mobile       0      13      351 TRUE              10
## # ... with 26 more rows, and 1 more variable: order_value <dbl>
…
Case Study

Let us apply what we have learnt to the case study. We want to filter all visits that resulted in a purchase.

filter(ecom, purchase)

## # A tibble: 103 x 8
##    referrer device n_visit n_pages duration purchase order_items
##    <fct>    <fct>    <dbl>   <dbl>    <dbl> <lgl>          <dbl>
##  1 bing     tablet       3      18      468 TRUE               6
##  2 direct   mobile       9      14      406 TRUE               3
##  3 bing     tablet       5      16      368 TRUE               6
##  4 social   tablet       7      10      290 TRUE               9
##  5 direct   tablet       2      19      342 TRUE               5
##  6 social   tablet       9      20      420 TRUE               7
##  7 bing     mobile       4      20      440 TRUE               3
##  8 yahoo    tablet       2      16      480 TRUE               9
##  9 bing     mobile       3      18      288 TRUE               6
## 10 yahoo    tablet       2      14      364 TRUE               6
## # ... with 93 more rows, and 1 more variable: order_value <dbl>
…
select(ecom, device, duration)

## # A tibble: 1,000 x 2
##    device duration
##    <fct>     <dbl>
##  1 laptop      693
##  2 tablet      459
##  3 laptop      996
##  4 tablet      468
##  5 mobile      955
##  6 laptop      135
##  7 mobile       75
##  8 mobile      908
##  9 mobile      209
## 10 mobile      208
## # ... with 990 more rows
…
select(ecom, referrer:order_items)

## # A tibble: 1,000 x 7
##    referrer device n_visit n_pages duration purchase order_items
##    <fct>    <fct>    <dbl>   <dbl>    <dbl> <lgl>          <dbl>
##  1 google   laptop      10       1      693 FALSE              0
##  2 yahoo    tablet       9       1      459 FALSE              0
##  3 direct   laptop       0       1      996 FALSE              0
##  4 bing     tablet       3      18      468 TRUE               6
##  5 yahoo    mobile       9       1      955 FALSE              0
##  6 yahoo    laptop       5       5      135 FALSE              0
##  7 yahoo    mobile      10       1       75 FALSE              0
##  8 direct   mobile      10       1      908 FALSE              0
##  9 bing     mobile       3      19      209 FALSE              0
## 10 google   mobile       6       1      208 FALSE              0
## # ... with 990 more rows
…
select(ecom, -n_pages, -duration)

## # A tibble: 1,000 x 6
##    referrer device n_visit purchase order_items order_value
##    <fct>    <fct>    <dbl> <lgl>          <dbl>       <dbl>
##  1 google   laptop      10 FALSE              0           0
##  2 yahoo    tablet       9 FALSE              0           0
##  3 direct   laptop       0 FALSE              0           0
##  4 bing     tablet       3 TRUE               6         434
##  5 yahoo    mobile       9 FALSE              0           0
##  6 yahoo    laptop       5 FALSE              0           0
##  7 yahoo    mobile      10 FALSE              0           0
##  8 direct   mobile      10 FALSE              0           0
##  9 bing     mobile       3 FALSE              0           0
## 10 google   mobile       6 FALSE              0           0
## # ... with 990 more rows

Case Study

For our case study, we need to select the columns order_value and order_items to calculate the AOV. We also need to select the device column as we are computing the AOV for each device type.

select(ecom, device, order_value, order_items)

## # A tibble: 1,000 x 3
##    device order_value order_items
##    <fct>        <dbl>       <dbl>
##  1 laptop           0           0
##  2 tablet           0           0
##  3 laptop           0           0
##  4 tablet         434           6
##  5 mobile           0           0
##  6 laptop           0           0
##  7 mobile           0           0
##  8 mobile           0           0
##  9 mobile           0           0
## 10 mobile           0           0
## # ... with 990 more rows
…
# view data
ecom2

## # A tibble: 0 x 3
## # ... with 3 variables: device <fct>, order_value <dbl>, order_items <dbl>

Grouping Data

We need to compute the total order value and total order items for each device in order to compute their AOV. To achieve this, we need to group the selected order_value and order_items by device type. group_by() allows us to group or split data based on particular (discrete) variable. The first argument is the name of the data set and the second argument is the name of the column based on which the data will be split.

To split the data by referrer type, we use group_by and specify the data set i.e. ecom and the column based on which to split the data i.e. referrer.

group_by(ecom, referrer)

## # A tibble: 1,000 x 8
## # Groups:   referrer [5]
##    referrer device n_visit n_pages duration purchase order_items
##    <fct>    <fct>    <dbl>   <dbl>    <dbl> <lgl>          <dbl>
##  1 google   laptop      10       1      693 FALSE              0
##  2 yahoo    tablet       9       1      459 FALSE              0
##  3 direct   laptop       0       1      996 FALSE              0
##  4 bing     tablet       3      18      468 TRUE               6
##  5 yahoo    mobile       9       1      955 FALSE              0
##  6 yahoo    laptop       5       5      135 FALSE              0
##  7 yahoo    mobile      10       1       75 FALSE              0
##  8 direct   mobile      10       1      908 FALSE              0
##  9 bing     mobile       3      19      209 FALSE              0
## 10 google   mobile       6       1      208 FALSE              0
## # ... with 990 more rows, and 1 more variable: order_value <dbl>
…
## # A tibble: 0 x 3
## # ... with 3 variables: device <fct>, order_value <dbl>, order_items <dbl>

Create Columns

To create a new column, we will use mutate(). The first argument is the name of the data set and the subsequent arguments are expressions for creating new columns based out of existing columns.

Let us add a new column avg_page_time i.e. time on site divided by number of pages visited.

# select duration and n_pages from ecom
mutate_1 <- select(ecom, n_pages, duration)
mutate(mutate_1, avg_page_time = duration / n_pages)

## # A tibble: 1,000 x 3
##    n_pages duration avg_page_time
##      <dbl>    <dbl>         <dbl>
##  1       1      693           693
##  2       1      459           459
##  3       1      996           996
##  4      18      468            26
##  5       1      955           955
##  6       5      135            27
##  7       1       75            75
##  8       1      908           908
##  9      19      209            11
## 10       1      208           208
## # ... with 990 more rows

We can create new columns based on other columns created using mutate. Let us create another column sqrt_avg_page_time i.e. square root of the average time on page using avg_page_time.

mutate(mutate_1,
       avg_page_time = duration / n_pages,
       sqrt_avg_page_time = sqrt(avg_page_time))

## # A tibble: 1,000 x 4
##    n_pages duration avg_page_time sqrt_avg_page_time
##      <dbl>    <dbl>         <dbl>              <dbl>
##  1       1      693           693              26.3 
##  2       1      459           459              21.4 
##  3       1      996           996              31.6 
##  4      18      468            26               5.10
##  5       1      955           955              30.9 
##  6       5      135            27               5.20
##  7       1       75            75               8.66
##  8       1      908           908              30.1 
##  9      19      209            11               3.32
## 10       1      208           208              14.4 
## # ... with 990 more rows
…
arrange(ecom, n_pages)

## # A tibble: 1,000 x 8
##    referrer device n_visit n_pages duration purchase order_items
##    <fct>    <fct>    <dbl>   <dbl>    <dbl> <lgl>          <dbl>
##  1 google   laptop      10       1      693 FALSE              0
##  2 yahoo    tablet       9       1      459 FALSE              0
##  3 direct   laptop       0       1      996 FALSE              0
##  4 yahoo    mobile       9       1      955 FALSE              0
##  5 yahoo    mobile      10       1       75 FALSE              0
##  6 direct   mobile      10       1      908 FALSE              0
##  7 google   mobile       6       1      208 FALSE              0
##  8 direct   laptop       9       1      738 FALSE              0
##  9 yahoo    mobile       7       1       19 FALSE              7
## 10 bing     laptop       1       1      995 FALSE              0
## # ... with 990 more rows, and 1 more variable: order_value <dbl>

If we want to arrange the data in descending order, we can use desc(). Let us arrange the data in descending order.

arrange(ecom , desc(n_pages))

## # A tibble: 1,000 x 8
##    referrer device n_visit n_pages duration purchase order_items
##    <fct>    <fct>    <dbl>   <dbl>    <dbl> <lgl>          <dbl>
##  1 social   tablet       9      20      420 TRUE               7
##  2 bing     mobile       4      20      440 TRUE               3
##  3 yahoo    tablet       0      20      200 FALSE              0
##  4 direct   tablet       6      20      580 TRUE               5
##  5 social   mobile       1      20      520 TRUE               5
##  6 google   mobile       8      20      300 TRUE               7
##  7 social   laptop       4      20      200 FALSE              0
##  8 yahoo    mobile       3      20      480 FALSE              0
##  9 social   laptop      10      20      280 TRUE               1
## 10 yahoo    mobile       2      20      240 FALSE              0
## # ... with 990 more rows, and 1 more variable: order_value <dbl>

Data can be arranged by multiple variables as well. Let us arrange data first by number of visits and then by number of pages in a descending order.

arrange(ecom, n_visit, desc(n_pages))

## # A tibble: 1,000 x 8
##    referrer device n_visit n_pages duration purchase order_items
##    <fct>    <fct>    <dbl>   <dbl>    <dbl> <lgl>          <dbl>
##  1 yahoo    tablet       0      20      200 FALSE              0
##  2 google   laptop       0      19      418 TRUE               2
##  3 bing     laptop       0      18      180 FALSE              0
##  4 yahoo    laptop       0      18      522 TRUE               8
##  5 direct   tablet       0      18      252 FALSE              0
##  6 social   laptop       0      17      204 FALSE              0
##  7 bing     laptop       0      17      272 TRUE               9
##  8 bing     mobile       0      16      272 FALSE              0
##  9 yahoo    mobile       0      15      255 FALSE              0
## 10 direct   laptop       0      15      255 FALSE              0
## # ... with 990 more rows, and 1 more variable: order_value <dbl>
…
