…
library(dplyr)
library(readr)

## Warning: package 'readr' was built under R version 3.5.1

Case Study

Let us look at a case study (e-commerce data) and see how we can use dplyr helper functions to answer questions we have about and to modify/transform the underlying data set.

Data

ecom <- readr::read_csv('https://raw.githubusercontent.com/rsquaredacademy/datasets/master/web.csv')
ecom

## # A tibble: 1,000 x 11
##       id referrer device bouncers n_visit n_pages duration country       
##    <int> <chr>    <chr>  <chr>      <int>   <dbl>    <dbl> <chr>         
##  1     1 google   laptop true          10       1      693 Czech Republic
##  2     2 yahoo    tablet true           9       1      459 Yemen         
##  3     3 direct   laptop true           0       1      996 Brazil        
##  4     4 bing     tablet false          3      18      468 China         
##  5     5 yahoo    mobile true           9       1      955 Poland        
##  6     6 yahoo    laptop false          5       5      135 South Africa  
##  7     7 yahoo    mobile true          10       1       75 Bangladesh    
##  8     8 direct   mobile true          10       1      908 Indonesia     
##  9     9 bing     mobile false          3      19      209 Netherlands   
## 10    10 google   mobile true           6       1      208 Czech Republic
## # ... with 990 more rows, and 3 more variables: purchase <chr>,
## #   order_items <dbl>, order_value <dbl>
…
rename(ecom, time_on_site = duration)

## # A tibble: 1,000 x 11
##       id referrer device bouncers n_visit n_pages time_on_site country    
##    <int> <chr>    <chr>  <chr>      <int>   <dbl>        <dbl> <chr>      
##  1     1 google   laptop true          10       1          693 Czech Repu~
##  2     2 yahoo    tablet true           9       1          459 Yemen      
##  3     3 direct   laptop true           0       1          996 Brazil     
##  4     4 bing     tablet false          3      18          468 China      
##  5     5 yahoo    mobile true           9       1          955 Poland     
##  6     6 yahoo    laptop false          5       5          135 South Afri~
##  7     7 yahoo    mobile true          10       1           75 Bangladesh 
##  8     8 direct   mobile true          10       1          908 Indonesia  
##  9     9 bing     mobile false          3      19          209 Netherlands
## 10    10 google   mobile true           6       1          208 Czech Repu~
## # ... with 990 more rows, and 3 more variables: purchase <chr>,
## #   order_items <dbl>, order_value <dbl>
…
sample_n(ecom, 700)

## # A tibble: 700 x 11
##       id referrer device bouncers n_visit n_pages duration country 
##    <int> <chr>    <chr>  <chr>      <int>   <dbl>    <dbl> <chr>   
##  1   536 google   mobile true          10       1      221 China   
##  2   929 social   tablet true           3       1      111 China   
##  3   613 bing     laptop false          0      12      144 China   
##  4   364 bing     laptop true           3       1      369 Kenya   
##  5   652 bing     tablet false          6       9      198 Thailand
##  6   472 direct   tablet false          6      13      338 Poland  
##  7   758 direct   tablet true           4       1      141 China   
##  8    70 bing     mobile true           5       1      190 China   
##  9   722 bing     mobile true          10       1      847 Yemen   
## 10   887 google   tablet false          2      14      266 Japan   
## # ... with 690 more rows, and 3 more variables: purchase <chr>,
## #   order_items <dbl>, order_value <dbl>

We can combine the sampling functions with other dplyr functions as shown below where we sample observation after grouping them according to the source of traffic.

ecom %>%
  group_by(referrer) %>%
  sample_n(100)

## # A tibble: 500 x 11
## # Groups:   referrer [5]
##       id referrer device bouncers n_visit n_pages duration country    
##    <int> <chr>    <chr>  <chr>      <int>   <dbl>    <dbl> <chr>      
##  1   114 bing     tablet false          0      14      280 Brazil     
##  2   722 bing     mobile true          10       1      847 Yemen      
##  3   963 bing     laptop true           4       1      857 Philippines
##  4   389 bing     mobile false          6       5       55 Indonesia  
##  5   379 bing     tablet true           2       1       24 China      
##  6   657 bing     laptop true           3       1      396 Canada     
##  7   293 bing     mobile true          10       1      480 Panama     
##  8   969 bing     laptop true          10       1      210 Indonesia  
##  9   385 bing     tablet false         10      15      150 Portugal   
## 10     9 bing     mobile false          3      19      209 Netherlands
## # ... with 490 more rows, and 3 more variables: purchase <chr>,
## #   order_items <dbl>, order_value <dbl>

sample_frac() allows a specific percentage of observations.

sample_frac(ecom, size = 0.7)

## # A tibble: 700 x 11
##       id referrer device bouncers n_visit n_pages duration country   
##    <int> <chr>    <chr>  <chr>      <int>   <dbl>    <dbl> <chr>     
##  1   375 social   laptop false          8      16      160 Kyrgyzstan
##  2   466 direct   tablet true           5       1      581 China     
##  3    89 direct   mobile false          4       8      144 Ecuador   
##  4   475 google   tablet false          1      18      180 China     
##  5   106 direct   mobile true           6       1      227 China     
##  6   939 google   tablet true           5       1      391 Mali      
##  7   676 bing     laptop true           8       1      585 China     
##  8   903 google   laptop false          4       9      117 Iran      
##  9   960 yahoo    laptop false          2       8      232 Russia    
## 10   734 bing     mobile true           3       1      479 Peru      
## # ... with 690 more rows, and 3 more variables: purchase <chr>,
## #   order_items <dbl>, order_value <dbl>
…
Case When

case_when() is an alternative to if else. It allows us to lay down the conditions clearly and makes the code more readable. In the below example, we create a new column repeat_visit from n_visit (the number of previous visits).

ecom %>%
  mutate(
    repeat_visit = case_when(
      n_visit > 0 ~ TRUE,
      TRUE ~ FALSE
    )
  ) %>%
  select(n_visit, repeat_visit) 

## # A tibble: 1,000 x 2
##    n_visit repeat_visit
##      <int> <lgl>       
##  1      10 TRUE        
##  2       9 TRUE        
##  3       0 FALSE       
##  4       3 TRUE        
##  5       9 TRUE        
##  6       5 TRUE        
##  7      10 TRUE        
##  8      10 TRUE        
##  9       3 TRUE        
## 10       6 TRUE        
## # ... with 990 more rows
…
