…
library(dplyr)
library(readr)

## Warning: package 'readr' was built under R version 3.5.1

Case Study

Let us look at a case study (e-commerce data) and see how we can use dplyr helper functions to answer questions we have about and to modify/transform the underlying data set.

Data

ecom <- readr::read_csv('https://raw.githubusercontent.com/rsquaredacademy/datasets/master/web.csv')
ecom

## # A tibble: 1,000 x 11
##       id referrer device bouncers n_visit n_pages duration country       
##    <int> <chr>    <chr>  <chr>      <int>   <dbl>    <dbl> <chr>         
##  1     1 google   laptop true          10       1      693 Czech Republic
##  2     2 yahoo    tablet true           9       1      459 Yemen         
##  3     3 direct   laptop true           0       1      996 Brazil        
##  4     4 bing     tablet false          3      18      468 China         
##  5     5 yahoo    mobile true           9       1      955 Poland        
##  6     6 yahoo    laptop false          5       5      135 South Africa  
##  7     7 yahoo    mobile true          10       1       75 Bangladesh    
##  8     8 direct   mobile true          10       1      908 Indonesia     
##  9     9 bing     mobile false          3      19      209 Netherlands   
## 10    10 google   mobile true           6       1      208 Czech Republic
## # ... with 990 more rows, and 3 more variables: purchase <chr>,
## #   order_items <dbl>, order_value <dbl>
…
rename(ecom, time_on_site = duration)

## # A tibble: 1,000 x 11
##       id referrer device bouncers n_visit n_pages time_on_site country    
##    <int> <chr>    <chr>  <chr>      <int>   <dbl>        <dbl> <chr>      
##  1     1 google   laptop true          10       1          693 Czech Repu~
##  2     2 yahoo    tablet true           9       1          459 Yemen      
##  3     3 direct   laptop true           0       1          996 Brazil     
##  4     4 bing     tablet false          3      18          468 China      
##  5     5 yahoo    mobile true           9       1          955 Poland     
##  6     6 yahoo    laptop false          5       5          135 South Afri~
##  7     7 yahoo    mobile true          10       1           75 Bangladesh 
##  8     8 direct   mobile true          10       1          908 Indonesia  
##  9     9 bing     mobile false          3      19          209 Netherlands
## 10    10 google   mobile true           6       1          208 Czech Repu~
## # ... with 990 more rows, and 3 more variables: purchase <chr>,
## #   order_items <dbl>, order_value <dbl>
…
sample_n(ecom, 700)

## # A tibble: 700 x 11
##       id referrer device bouncers n_visit n_pages duration country    
##    <int> <chr>    <chr>  <chr>      <int>   <dbl>    <dbl> <chr>      
##  1   847 yahoo    mobile true           0       1      895 Russia     
##  2    12 direct   tablet false          6      12      132 Estonia    
##  3   110 direct   mobile false          5       5       55 Russia     
##  4   169 direct   laptop false          6       6       96 Albania    
##  5   518 direct   tablet true           4       1      164 Chile      
##  6   489 google   tablet false          9       3       48 China      
##  7   185 google   mobile false          8       2       44 Philippines
##  8   802 direct   mobile false          8      15      180 Philippines
##  9   399 google   tablet true           5       1       82 Indonesia  
## 10   536 google   mobile true          10       1      221 China      
## # ... with 690 more rows, and 3 more variables: purchase <chr>,
## #   order_items <dbl>, order_value <dbl>

We can combine the sampling functions with other dplyr functions as shown below where we sample observation after grouping them according to the source of traffic.

ecom %>%
  group_by(referrer) %>%
  sample_n(100)

## # A tibble: 500 x 11
## # Groups:   referrer [5]
##       id referrer device bouncers n_visit n_pages duration country    
##    <int> <chr>    <chr>  <chr>      <int>   <dbl>    <dbl> <chr>      
##  1   949 bing     mobile false         10       1       26 China      
##  2   697 bing     tablet true           0       1      356 Greece     
##  3   810 bing     mobile true           3       1      119 Indonesia  
##  4   500 bing     mobile true           9       1      574 Egypt      
##  5   485 bing     tablet true           7       1      423 Qatar      
##  6   341 bing     mobile false          5      15      405 Russia     
##  7   502 bing     laptop true           7       1      516 Portugal   
##  8   853 bing     tablet false          7       2       34 Afghanistan
##  9   231 bing     tablet true           0       1      697 Portugal   
## 10    36 bing     mobile false          1       1       25 Ireland    
## # ... with 490 more rows, and 3 more variables: purchase <chr>,
## #   order_items <dbl>, order_value <dbl>

sample_frac() allows a specific percentage of observations.

sample_frac(ecom, size = 0.7)

## # A tibble: 700 x 11
##       id referrer device bouncers n_visit n_pages duration country       
##    <int> <chr>    <chr>  <chr>      <int>   <dbl>    <dbl> <chr>         
##  1   879 google   mobile false          2      15      210 United Kingdom
##  2   851 direct   laptop true           2       1      111 Portugal      
##  3   946 direct   mobile false          1      15      180 Kenya         
##  4   655 bing     mobile true           6       1      604 Nigeria       
##  5   136 yahoo    tablet false          0      20      200 Indonesia     
##  6   932 google   laptop false          2      17      391 Ukraine       
##  7   913 direct   laptop false          2      18      324 China         
##  8   958 direct   tablet true           4       1      136 Poland        
##  9    22 google   mobile true           5       1      147 Brazil        
## 10   455 social   laptop true           2       1      806 Brazil        
## # ... with 690 more rows, and 3 more variables: purchase <chr>,
## #   order_items <dbl>, order_value <dbl>
…
Case When

case_when() is an alternative to if else. It allows us to lay down the conditions clearly and makes the code more readable. In the below example, we create a new column repeat_visit from n_visit (the number of previous visits).

ecom %>%
  mutate(
    repeat_visit = case_when(
      n_visit > 0 ~ TRUE,
      TRUE ~ FALSE
    )
  ) %>%
  select(n_visit, repeat_visit) 

## # A tibble: 1,000 x 2
##    n_visit repeat_visit
##      <int> <lgl>       
##  1      10 TRUE        
##  2       9 TRUE        
##  3       0 FALSE       
##  4       3 TRUE        
##  5       9 TRUE        
##  6       5 TRUE        
##  7      10 TRUE        
##  8      10 TRUE        
##  9       3 TRUE        
## 10       6 TRUE        
## # ... with 990 more rows
