…
## cols(
##   id = col_integer(),
##   female = col_integer(),
##   race = col_integer(),
##   ses = col_integer(),
##   schtyp = col_integer(),
##   prog = col_integer(),
##   read = col_integer(),
##   write = col_integer(),
##   math = col_integer(),
##   science = col_integer(),
##   socst = col_integer()
## )

## # A tibble: 200 x 11
##       id female  race   ses schtyp  prog  read write  math science socst
##    <int>  <int> <int> <int>  <int> <int> <int> <int> <int>   <int> <int>
##  1    70      0     4     1      1     1    57    52    41      47    57
##  2   121      1     4     2      1     3    68    59    53      63    61
##  3    86      0     4     3      1     1    44    33    54      58    31
##  4   141      0     4     3      1     3    63    44    47      53    56
##  5   172      0     4     2      1     2    47    52    57      53    61
##  6   113      0     4     2      1     2    44    52    51      63    61
##  7    50      0     3     2      1     1    50    59    42      53    61
##  8    11      0     1     2      1     2    34    46    45      39    36
##  9    84      0     4     2      1     1    63    57    54      58    51
## 10    48      0     3     2      1     2    57    55    52      50    51
## # ... with 190 more rows
…
If the column names are absent (i.e. the column names are provided in a seprate file), use the col_names argument and set it to FALSE. Now readr will not convert the first row of data into column name and instead it will generate new column names.

read_csv('hsb3.csv', col_names = FALSE)

## # A tibble: 200 x 11
##       X1    X2    X3    X4    X5    X6    X7    X8    X9   X10   X11
##    <int> <int> <int> <int> <int> <int> <int> <int> <int> <int> <int>
##  1    70     0     4     1     1     1    57    52    41    47    57
##  2   121     1     4     2     1     3    68    59    53    63    61
##  3    86     0     4     3     1     1    44    33    54    58    31
##  4   141     0     4     3     1     3    63    44    47    53    56
##  5   172     0     4     2     1     2    47    52    57    53    61
##  6   113     0     4     2     1     2    44    52    51    63    61
##  7    50     0     3     2     1     1    50    59    42    53    61
##  8    11     0     1     2     1     2    34    46    45    39    36
##  9    84     0     4     2     1     1    63    57    54    58    51
## 10    48     0     3     2     1     2    57    55    52    50    51
## # ... with 190 more rows

We may not always want to use the column names generated by readr and instead specify new column names. In such cases, we can use col_names to supply column names as shown in the below example. Let us reread hsb3 and specify column names.

cnames <- c("id", "female", "race", "ses", "schtyp", "prog", "read", "write", "math", "science", "socst")
read_csv('hsb3.csv', col_names = cnames)

## # A tibble: 200 x 11
##       id female  race   ses schtyp  prog  read write  math science socst
##    <int>  <int> <int> <int>  <int> <int> <int> <int> <int>   <int> <int>
##  1    70      0     4     1      1     1    57    52    41      47    57
##  2   121      1     4     2      1     3    68    59    53      63    61
##  3    86      0     4     3      1     1    44    33    54      58    31
##  4   141      0     4     3      1     3    63    44    47      53    56
##  5   172      0     4     2      1     2    47    52    57      53    61
##  6   113      0     4     2      1     2    44    52    51      63    61
##  7    50      0     3     2      1     1    50    59    42      53    61
##  8    11      0     1     2      1     2    34    46    45      39    36
##  9    84      0     4     2      1     1    63    57    54      58    51
## 10    48      0     3     2      1     2    57    55    52      50    51
## # ... with 190 more rows
…
Use skip argument to indicate the number of lines/rows to be skipped while reading data from a file. For example, if the file has contents other than data in the first few lines, we need to skip them before reading the data. In the below example, we will skip the first 3 lines as they contain information about the data set which we do not need.

read_csv('hsb4.csv', skip = 3)

## # A tibble: 200 x 11
##       id female  race   ses schtyp  prog  read write  math science socst
##    <int>  <int> <int> <int>  <int> <int> <int> <int> <int>   <int> <int>
##  1    70      0     4     1      1     1    57    52    41      47    57
##  2   121      1     4     2      1     3    68    59    53      63    61
##  3    86      0     4     3      1     1    44    33    54      58    31
##  4   141      0     4     3      1     3    63    44    47      53    56
##  5   172      0     4     2      1     2    47    52    57      53    61
##  6   113      0     4     2      1     2    44    52    51      63    61
##  7    50      0     3     2      1     1    50    59    42      53    61
##  8    11      0     1     2      1     2    34    46    45      39    36
##  9    84      0     4     2      1     1    63    57    54      58    51
## 10    48      0     3     2      1     2    57    55    52      50    51
## # ... with 190 more rows
…
read_csv('hsb2.csv', n_max = 120)

## # A tibble: 120 x 11
##       id female  race   ses schtyp  prog  read write  math science socst
##    <int>  <int> <int> <int>  <int> <int> <int> <int> <int>   <int> <int>
##  1    70      0     4     1      1     1    57    52    41      47    57
##  2   121      1     4     2      1     3    68    59    53      63    61
##  3    86      0     4     3      1     1    44    33    54      58    31
##  4   141      0     4     3      1     3    63    44    47      53    56
##  5   172      0     4     2      1     2    47    52    57      53    61
##  6   113      0     4     2      1     2    44    52    51      63    61
##  7    50      0     3     2      1     1    50    59    42      53    61
##  8    11      0     1     2      1     2    34    46    45      39    36
##  9    84      0     4     2      1     1    63    57    54      58    51
## 10    48      0     3     2      1     2    57    55    52      50    51
## # ... with 110 more rows
…
col_time()

col_datetime()

While specifying the data types we also need to specify the categories of the categorical/qualitative variable. To do that, we use the levels argument within col_factor(). Let us read data from the hsb2.csv file to understand data type specification.

read_csv('hsb2.csv', col_types = list(
  col_integer(), col_factor(levels = c(0, 1)), 
  col_factor(levels = c(1, 2, 3, 4)), col_factor(levels = c(1, 2, 3)), 
  col_factor(levels = c(1, 2)), col_factor(levels = c(1, 2, 3)),
  col_integer(), col_integer(), col_integer(), col_integer(),
  col_integer())            
)

## # A tibble: 200 x 11
##       id female race  ses   schtyp prog   read write  math science socst
##    <int> <fct>  <fct> <fct> <fct>  <fct> <int> <int> <int>   <int> <int>
##  1    70 0      4     1     1      1        57    52    41      47    57
##  2   121 1      4     2     1      3        68    59    53      63    61
##  3    86 0      4     3     1      1        44    33    54      58    31
##  4   141 0      4     3     1      3        63    44    47      53    56
##  5   172 0      4     2     1      2        47    52    57      53    61
##  6   113 0      4     2     1      2        44    52    51      63    61
##  7    50 0      3     2     1      1        50    59    42      53    61
##  8    11 0      1     2     1      2        34    46    45      39    36
##  9    84 0      4     2     1      1        63    57    54      58    51
## 10    48 0      3     2     1      2        57    55    52      50    51
## # ... with 190 more rows
…
## Warning in read_tokens_(data, tokenizer, col_specs, col_names, locale_, :
## length of NULL cannot be changed

## Warning in read_tokens_(data, tokenizer, col_specs, col_names, locale_, :
## length of NULL cannot be changed

## Warning in read_tokens_(data, tokenizer, col_specs, col_names, locale_, :
## length of NULL cannot be changed

## Warning in read_tokens_(data, tokenizer, col_specs, col_names, locale_, :
## length of NULL cannot be changed

## # A tibble: 200 x 3
##       id prog   read
##    <int> <fct> <int>
##  1    70 1        57
##  2   121 3        68
##  3    86 1        44
##  4   141 3        63
##  5   172 2        47
##  6   113 2        44
##  7    50 1        50
##  8    11 2        34
##  9    84 1        63
## 10    48 2        57
## # ... with 190 more rows
…
