…
tibble can be created using any of the following:

tibble()

as_tibble()

tribble()

Let us start with tibble().

tibble(x = letters,
       y = 1:26,
       z = sample(100, 26))

## # A tibble: 26 x 3
##    x         y     z
##    <chr> <int> <int>
##  1 a         1    71
##  2 b         2    56
##  3 c         3    59
##  4 d         4    14
##  5 e         5    58
##  6 f         6    60
##  7 g         7    16
##  8 h         8     9
##  9 i         9    66
## 10 j        10    48
## # ... with 16 more rows
…
tibble features

never changes input’s types

tibble() will never alter the input’s type. For example, if you supply a
character vector it will not be converted to factor unlike data.frame where
you need to set stringsAsFactors to FALSE.

tibble(x = letters,
       y = 1:26,
       z = sample(100, 26))

## # A tibble: 26 x 3
##    x         y     z
##    <chr> <int> <int>
##  1 a         1    62
##  2 b         2    13
##  3 c         3    75
##  4 d         4    17
##  5 e         5    82
##  6 f         6    83
##  7 g         7     9
##  8 h         8    76
##  9 i         9    19
## 10 j        10    97
## # ... with 16 more rows
…
## [1] "order value"

never prints all rows

tibble() will never print all the rows and clutter your console. It will only
print the first 10 rows and only as many columns that fit the width of the
console.

x <- 1:100
y <- letters[1]
z <- sample(c(TRUE, FALSE), 100, replace = TRUE)
tibble(x, y, z)

## # A tibble: 100 x 3
##        x y     z    
##    <int> <chr> <lgl>
##  1     1 a     TRUE 
##  2     2 a     FALSE
##  3     3 a     TRUE 
##  4     4 a     TRUE 
##  5     5 a     FALSE
##  6     6 a     TRUE 
##  7     7 a     TRUE 
##  8     8 a     FALSE
##  9     9 a     TRUE 
## 10    10 a     FALSE
## # ... with 90 more rows
…
