…
am(now())  

## [1] FALSE

pm(now())

## [1] TRUE

Case Study

Data

transact <- read_csv('https://raw.githubusercontent.com/rsquaredacademy/datasets/master/transact.csv')

## # A tibble: 2,466 x 3
##    Invoice    Due        Payment   
##    <date>     <date>     <date>    
##  1 2013-01-02 2013-02-01 2013-01-15
##  2 2013-01-26 2013-02-25 2013-03-03
##  3 2013-07-03 2013-08-02 2013-07-08
##  4 2013-02-10 2013-03-12 2013-03-17
##  5 2012-10-25 2012-11-24 2012-11-28
##  6 2012-01-27 2012-02-26 2012-02-22
##  7 2013-08-13 2013-09-12 2013-09-09
##  8 2012-12-16 2013-01-15 2013-01-12
##  9 2012-05-14 2012-06-13 2012-07-01
## 10 2013-07-01 2013-07-31 2013-07-26
## # ... with 2,456 more rows
…
year(this_day)

## [1] 2017

Let us now extract the date, month and year from the Due column.

transact %>%
  mutate(
    due_day   = day(Due),
    due_month = month(Due),
    due_year  = year(Due)
  )

## # A tibble: 2,466 x 6
##    Invoice    Due        Payment    due_day due_month due_year
##    <date>     <date>     <date>       <int>     <dbl>    <dbl>
##  1 2013-01-02 2013-02-01 2013-01-15       1         2     2013
##  2 2013-01-26 2013-02-25 2013-03-03      25         2     2013
##  3 2013-07-03 2013-08-02 2013-07-08       2         8     2013
##  4 2013-02-10 2013-03-12 2013-03-17      12         3     2013
##  5 2012-10-25 2012-11-24 2012-11-28      24        11     2012
##  6 2012-01-27 2012-02-26 2012-02-22      26         2     2012
##  7 2013-08-13 2013-09-12 2013-09-09      12         9     2013
##  8 2012-12-16 2013-01-15 2013-01-12      15         1     2013
##  9 2012-05-14 2012-06-13 2012-07-01      13         6     2012
## 10 2013-07-01 2013-07-31 2013-07-26      31         7     2013
## # ... with 2,456 more rows
…
course_start    <- as_date('2017-04-12')
course_end      <- as_date('2017-04-21')
course_duration <- course_end - course_start
course_duration
## Time difference of 9 days

Let us estimate the number of days to settle the invoice by subtracting the
date of invoice from the date of payment.

transact %>%
  mutate(
    days_to_pay = Payment - Invoice
  )

## # A tibble: 2,466 x 4
##    Invoice    Due        Payment    days_to_pay
##    <date>     <date>     <date>     <time>     
##  1 2013-01-02 2013-02-01 2013-01-15 13 days    
##  2 2013-01-26 2013-02-25 2013-03-03 36 days    
##  3 2013-07-03 2013-08-02 2013-07-08  5 days    
##  4 2013-02-10 2013-03-12 2013-03-17 35 days    
##  5 2012-10-25 2012-11-24 2012-11-28 34 days    
##  6 2012-01-27 2012-02-26 2012-02-22 26 days    
##  7 2013-08-13 2013-09-12 2013-09-09 27 days    
##  8 2012-12-16 2013-01-15 2013-01-12 27 days    
##  9 2012-05-14 2012-06-13 2012-07-01 48 days    
## 10 2013-07-01 2013-07-31 2013-07-26 25 days    
## # ... with 2,456 more rows
…
## # A tibble: 1 x 1
##       n
##   <int>
## 1   877

Is due year a leap year?

Just for fun, let us check if the due year happens to be a leap year.

transact %>%
  mutate(
    is_leap = leap_year(Due)
  )

## # A tibble: 2,466 x 4
##    Invoice    Due        Payment    is_leap
##    <date>     <date>     <date>     <lgl>  
##  1 2013-01-02 2013-02-01 2013-01-15 FALSE  
##  2 2013-01-26 2013-02-25 2013-03-03 FALSE  
##  3 2013-07-03 2013-08-02 2013-07-08 FALSE  
##  4 2013-02-10 2013-03-12 2013-03-17 FALSE  
##  5 2012-10-25 2012-11-24 2012-11-28 TRUE   
##  6 2012-01-27 2012-02-26 2012-02-22 TRUE   
##  7 2013-08-13 2013-09-12 2013-09-09 FALSE  
##  8 2012-12-16 2013-01-15 2013-01-12 FALSE  
##  9 2012-05-14 2012-06-13 2012-07-01 TRUE   
## 10 2013-07-01 2013-07-31 2013-07-26 FALSE  
## # ... with 2,456 more rows
…
another interval for due_next and the payment date

if the intervals overlap, the payment was made within the due date

transact %>%
  mutate(
    inv_due_interval = interval(Invoice, Due),
    due_next         = Due + days(1),
    due_pay_interval = interval(due_next, Payment),
    overlaps         = int_overlaps(inv_due_interval, due_pay_interval)
  ) %>%
  select(Invoice, Due, Payment, overlaps)

## # A tibble: 2,466 x 4
##    Invoice    Due        Payment    overlaps
##    <date>     <date>     <date>     <lgl>   
##  1 2013-01-02 2013-02-01 2013-01-15 TRUE    
##  2 2013-01-26 2013-02-25 2013-03-03 FALSE   
##  3 2013-07-03 2013-08-02 2013-07-08 TRUE    
##  4 2013-02-10 2013-03-12 2013-03-17 FALSE   
##  5 2012-10-25 2012-11-24 2012-11-28 FALSE   
##  6 2012-01-27 2012-02-26 2012-02-22 TRUE    
##  7 2013-08-13 2013-09-12 2013-09-09 TRUE    
##  8 2012-12-16 2013-01-15 2013-01-12 TRUE    
##  9 2012-05-14 2012-06-13 2012-07-01 FALSE   
## 10 2013-07-01 2013-07-31 2013-07-26 TRUE    
## # ... with 2,456 more rows

Below we show another method to count the number of invoices paid within the
due date. Instead of using days to change the due date, we use int_shift
to shift it by 1 day.

transact %>%
  mutate(
    inv_due_interval = interval(Invoice, Due),
    due_pay_interval = interval(Due, Payment),  
    due_pay_next     = int_shift(due_pay_interval, by = days(1)),
    overlaps         = int_overlaps(inv_due_interval, due_pay_next)
  ) %>%
  select(Invoice, Due, Payment, overlaps)

## # A tibble: 2,466 x 4
##    Invoice    Due        Payment    overlaps
##    <date>     <date>     <date>     <lgl>   
##  1 2013-01-02 2013-02-01 2013-01-15 TRUE    
##  2 2013-01-26 2013-02-25 2013-03-03 FALSE   
##  3 2013-07-03 2013-08-02 2013-07-08 TRUE    
##  4 2013-02-10 2013-03-12 2013-03-17 FALSE   
##  5 2012-10-25 2012-11-24 2012-11-28 FALSE   
##  6 2012-01-27 2012-02-26 2012-02-22 TRUE    
##  7 2013-08-13 2013-09-12 2013-09-09 TRUE    
##  8 2012-12-16 2013-01-15 2013-01-12 TRUE    
##  9 2012-05-14 2012-06-13 2012-07-01 FALSE   
## 10 2013-07-01 2013-07-31 2013-07-26 TRUE    
## # ... with 2,456 more rows

You might be thinking why we incremented the due date by a day before creating
the interval between the due day and the payment day. If we do not increment,
both the intervals will share a common date i.e. the due date and they will
always overlap as shown below:

transact %>%
  mutate(
    inv_due_interval = interval(Invoice, Due),
    due_pay_interval = interval(Due, Payment),
    overlaps         = int_overlaps(inv_due_interval, due_pay_interval)
  ) %>%
  select(Invoice, Due, Payment, overlaps)

## # A tibble: 2,466 x 4
##    Invoice    Due        Payment    overlaps
##    <date>     <date>     <date>     <lgl>   
##  1 2013-01-02 2013-02-01 2013-01-15 TRUE    
##  2 2013-01-26 2013-02-25 2013-03-03 TRUE    
##  3 2013-07-03 2013-08-02 2013-07-08 TRUE    
##  4 2013-02-10 2013-03-12 2013-03-17 TRUE    
##  5 2012-10-25 2012-11-24 2012-11-28 TRUE    
##  6 2012-01-27 2012-02-26 2012-02-22 TRUE    
##  7 2013-08-13 2013-09-12 2013-09-09 TRUE    
##  8 2012-12-16 2013-01-15 2013-01-12 TRUE    
##  9 2012-05-14 2012-06-13 2012-07-01 TRUE    
## 10 2013-07-01 2013-07-31 2013-07-26 TRUE    
## # ... with 2,456 more rows
…
Let us use %within% to count the number of invoices that were settled within
the due date. We will do this by:

creating an interval for the invoice and due date

check if the payment date falls within the above interval

transact %>%
  mutate(
    inv_due_interval = interval(Invoice, Due),
    overlaps         = Payment %within% inv_due_interval
  ) %>%
  select(Due, Payment, overlaps)

## # A tibble: 2,466 x 3
##    Due        Payment    overlaps
##    <date>     <date>     <lgl>   
##  1 2013-02-01 2013-01-15 TRUE    
##  2 2013-02-25 2013-03-03 FALSE   
##  3 2013-08-02 2013-07-08 TRUE    
##  4 2013-03-12 2013-03-17 FALSE   
##  5 2012-11-24 2012-11-28 FALSE   
##  6 2012-02-26 2012-02-22 TRUE    
##  7 2013-09-12 2013-09-09 TRUE    
##  8 2013-01-15 2013-01-12 TRUE    
##  9 2012-06-13 2012-07-01 FALSE   
## 10 2013-07-31 2013-07-26 TRUE    
## # ... with 2,456 more rows
…
## # A tibble: 4 x 2
##   quarter_due     n
##         <int> <int>
## 1           1   521
## 2           2   661
## 3           3   618
## 4           4   666

transact %>%
  mutate(
    Quarter = quarter(Due, with_year = TRUE)
  )

## # A tibble: 2,466 x 4
##    Invoice    Due        Payment    Quarter
##    <date>     <date>     <date>       <dbl>
##  1 2013-01-02 2013-02-01 2013-01-15   2013.
##  2 2013-01-26 2013-02-25 2013-03-03   2013.
##  3 2013-07-03 2013-08-02 2013-07-08   2013.
##  4 2013-02-10 2013-03-12 2013-03-17   2013.
##  5 2012-10-25 2012-11-24 2012-11-28   2012.
##  6 2012-01-27 2012-02-26 2012-02-22   2012.
##  7 2013-08-13 2013-09-12 2013-09-09   2013.
##  8 2012-12-16 2013-01-15 2013-01-12   2013.
##  9 2012-05-14 2012-06-13 2012-07-01   2012.
## 10 2013-07-01 2013-07-31 2013-07-26   2013.
## # ... with 2,456 more rows
…
