…
When we print result, it displays the first 10 rows. In addition it shows the database information at the beginning as well as ... with more rows at the bottom of the table but it does not exactly say how many more rows are there.
Let us use nrow() to find the total number of rows in result.

nrow(result)

## [1] NA

No luck with nrow() either as it returns NA instead of the number of rows in result. Now, why does this happen? When working with databases, dplyr never pulls data into R unless you explicitly ask for it. In the previous example, it just displays the first 10 rows and has not read the entire table. The ecom table in the database has 1000 rows of data and ideally dplyr should have read all the rows of data. But it does not work like that and the reason is this statement at the beginning of the output: Source:   lazy query [?? x 2]. It does display the number of columns, 2. In place of the number of columns there is ??because it has not read the entire data from the ecom table.

What do we do if we need the entire data? In such cases, we can use collect() as shown in the below example.

result %>% 
  dplyr::collect() 

## # A tibble: 1,000 x 2
##    referrer device
##    <chr>    <chr> 
##  1 google   laptop
##  2 yahoo    tablet
##  3 direct   laptop
##  4 bing     tablet
##  5 yahoo    mobile
##  6 yahoo    laptop
##  7 yahoo    mobile
##  8 direct   mobile
##  9 bing     mobile
## 10 google   mobile
## # ... with 990 more rows
…
