…
##  [1]  28.34 134.97 534.86  57.30 377.85 107.93  96.07   6.10   4.36 292.58
## [11]  37.03 315.54 330.25 342.55 171.48  46.84 290.48 112.00   0.27 188.02
## [21]   7.56  10.06 216.54 136.80  57.60  23.34 100.13  19.50 130.74 322.74
## [31]     NA   1.19  12.39 190.24 678.82  13.09  13.18  53.09 132.38  32.57
## [41]  25.54 187.71   6.72 312.90 204.84  11.99     NA 210.61 248.16  83.47

Putting it all together…

top_50 <- tibble(title = movie_title, release = movie_year, 
    `runtime (mins)` = movie_runtime, genre = movie_genre, rating = movie_rating, 
    votes = movie_votes, `revenue ($ millions)` = movie_revenue)

top_50

## # A tibble: 50 x 7
##    title    release `runtime (mins)` genre   rating  votes `revenue ($ mil~
##    <chr>      <dbl>            <dbl> <chr>    <dbl>  <dbl>            <dbl>
##  1 The Sha~    1994              142 Drama      9.3 2.07e6            28.3 
##  2 The God~    1972              175 Crime,~    9.2 1.42e6           135.  
##  3 The Dar~    2008              152 Action~    9   2.04e6           535.  
##  4 The God~    1974              202 Crime,~    9   9.87e5            57.3 
##  5 The Lor~    2003              201 Advent~    8.9 1.48e6           378.  
##  6 Pulp Fi~    1994              154 Crime,~    8.9 1.62e6           108.  
##  7 Schindl~    1993              195 Biogra~    8.9 1.07e6            96.1 
##  8 Il buon~    1966              161 Western    8.9 6.15e5             6.1 
##  9 12 Angr~    1957               96 Drama      8.9 5.85e5             4.36
## 10 Incepti~    2010              148 Action~    8.8 1.82e6           293.  
## # ... with 40 more rows
…
