…
## [1] 20.92313

median(items)

## [1] 10

Most Purchased Items

mba_data %>%
  group_by(Description) %>%
  summarize(count = n()) %>%
  arrange(desc(count))

## # A tibble: 4,212 x 2
##    Description                        count
##    <chr>                              <int>
##  1 WHITE HANGING HEART T-LIGHT HOLDER  2369
##  2 REGENCY CAKESTAND 3 TIER            2200
##  3 JUMBO BAG RED RETROSPOT             2159
##  4 PARTY BUNTING                       1727
##  5 LUNCH BAG RED RETROSPOT             1638
##  6 ASSORTED COLOUR BIRD ORNAMENT       1501
##  7 SET OF 3 CAKE TINS PANTRY DESIGN    1473
##  8 <NA>                                1454
##  9 PACK OF 72 RETROSPOT CAKE CASES     1385
## 10 LUNCH BAG  BLACK SKULL.             1350
## # ... with 4,202 more rows
…
