…
To calculate the RFM score for each customer we need transaction data which should include the following:

a unique customer id

date of transaction/order

transaction/order amount

rfm includes a sample data set rfm_data_orders which includes the above
details:

rfm_data_orders

## # A tibble: 4,906 x 3
##    customer_id         order_date revenue
##    <chr>               <date>       <dbl>
##  1 Mr. Brion Stark Sr. 2004-12-20      32
##  2 Ethyl Botsford      2005-05-02      36
##  3 Hosteen Jacobi      2004-03-06     116
##  4 Mr. Edw Frami       2006-03-15      99
##  5 Josef Lemke         2006-08-14      76
##  6 Julisa Halvorson    2005-05-28      56
##  7 Judyth Lueilwitz    2005-03-09     108
##  8 Mr. Mekhi Goyette   2005-09-23     183
##  9 Hansford Moen PhD   2005-09-07      30
## 10 Fount Flatley       2006-04-12      13
## # ... with 4,896 more rows
…
recency_lower   <- c(4, 2, 3, 4, 3, 3, 2, 1, 1, 2, 1)
recency_upper   <- c(5, 4, 5, 5, 4, 4, 3, 2, 1, 3, 1)
frequency_lower <- c(4, 3, 1, 1, 1, 3, 1, 2, 4, 2, 1)
frequency_upper <- c(5, 4, 3, 1, 1, 4, 2, 5, 5, 3, 1)
monetary_lower  <- c(4, 4, 1, 1, 1, 3, 1, 2, 4, 2, 1)
monetary_upper  <- c(5, 5, 3, 1, 1, 4, 2, 5, 5, 3, 1)

segments <- 
  rfm_segment(rfm_result, segment_names, recency_lower, recency_upper,
              frequency_lower, frequency_upper, monetary_lower, monetary_upper)

segments %>% 
  select(customer_id, segment, rfm_score)

## # A tibble: 995 x 3
##    customer_id        segment            rfm_score
##    <chr>              <chr>                  <dbl>
##  1 Abbey O'Reilly DVM Need Attention           343
##  2 Add Senger         Potential Loyalist       412
##  3 Aden Lesch Sr.     Hibernating              323
##  4 Admiral Senger     Need Attention           433
##  5 Agness O'Keefe     Champions                555
##  6 Aileen Barton      Champions                555
##  7 Ailene Hermann     Others                   355
##  8 Aiyanna Bruen PhD  About To Sleep           321
##  9 Ala Schmidt DDS    About To Sleep           212
## 10 Alannah Borer      Others                   121
## # ... with 985 more rows
…
