…
modify column names

make them more descriptive

to snake_case from camelCase

Users can retain the names and format as returned by NSE using the clean_names argument and setting it to FALSE.

Quick Overview

Fetch Indices Quote

nse_index_quote()

## # A tibble: 55 x 4
##    index_name        last_traded_price  change percent_change
##    <chr>                         <dbl>   <dbl>          <dbl>
##  1 NIFTY 50 Pre Open           12328.   -27.1          -0.22 
##  2 NIFTY 50                    12371.    15.4           0.12 
##  3 NIFTY NEXT 50               29009.    30.2           0.1  
##  4 NIFTY100 LIQ 15              3794.   -11.2          -0.290
##  5 NIFTY BANK                  31661.  -193.           -0.6  
##  6 INDIA VIX                      14.4    0.24          1.67 
##  7 NIFTY 100                   12486.    15.2           0.12 
##  8 NIFTY 500                   10125.    15.4           0.15 
##  9 NIFTY MIDCAP 100            18037.    52.1           0.290
## 10 NIFTY MIDCAP 50              4978.     9.5           0.19 
## # ... with 45 more rows

# retain original column names as returned by NSE
nse_index_quote(clean_names = FALSE)

## # A tibble: 55 x 4
##    name              lastPrice  change pChange
##    <chr>                 <dbl>   <dbl>   <dbl>
##  1 NIFTY 50 Pre Open   12328.   -27.1   -0.22 
##  2 NIFTY 50            12371.    15.4    0.12 
##  3 NIFTY NEXT 50       29009.    30.2    0.1  
##  4 NIFTY100 LIQ 15      3794.   -11.2   -0.290
##  5 NIFTY BANK          31661.  -193.    -0.6  
##  6 INDIA VIX              14.4    0.24   1.67 
##  7 NIFTY 100           12486.    15.2    0.12 
##  8 NIFTY 500           10125.    15.4    0.15 
##  9 NIFTY MIDCAP 100    18037.    52.1    0.290
## 10 NIFTY MIDCAP 50      4978.     9.5    0.19 
## # ... with 45 more rows
…
Stocks that have touched their 52 week highs during the day

nse_stock_year_high()

## # A tibble: 55 x 10
##    symbol symbol_desc date       new_high   year last_traded_pri~ prev_high
##    <chr>  <chr>       <date>        <dbl>  <dbl>            <dbl>     <dbl>
##  1 AGCNET AGC Networ~ 2020-01-16    202.   202.             202.      193. 
##  2 ALKYL~ Alkyl Amin~ 2020-01-16   1300   1300             1297.     1300  
##  3 APOLL~ Apollo Pip~ 2020-01-16    408.   408.             403       399  
##  4 AUBANK AU Small F~ 2020-01-16    888    888              874.      885. 
##  5 AVANT~ Avanti Fee~ 2020-01-16    770    770              732.      756  
##  6 BAJAJ~ Bajaj Fins~ 2020-01-16   9681.  9681.            9656      9640  
##  7 BALKR~ Balkrishna~ 2020-01-16   1112.  1112.            1096      1107. 
##  8 BCP    B.C. Power~ 2020-01-16     20.2   20.2             19.0      20.0
##  9 BERGE~ Berger Pai~ 2020-01-16    556.   556.             554.      550  
## 10 BHART~ Bharti Air~ 2019-12-02    499.   499.             493.      486. 
## # ... with 45 more rows, and 3 more variables: prev_close <dbl>,
## #   change <dbl>, percent_change <dbl>

# retain original column names as returned by NSE
nse_stock_year_high(clean_names = FALSE)

## # A tibble: 55 x 10
##    symbol symbolDesc dt          value   year    ltp value_old   prev
##    <chr>  <chr>      <date>      <dbl>  <dbl>  <dbl>     <dbl>  <dbl>
##  1 AGCNET AGC Netwo~ 2020-01-16  202.   202.   202.      193.   193. 
##  2 ALKYL~ Alkyl Ami~ 2020-01-16 1300   1300   1297.     1300   1296. 
##  3 APOLL~ Apollo Pi~ 2020-01-16  408.   408.   403       399    395. 
##  4 AUBANK AU Small ~ 2020-01-16  888    888    874.      885.   877. 
##  5 AVANT~ Avanti Fe~ 2020-01-16  770    770    732.      756    746. 
##  6 BAJAJ~ Bajaj Fin~ 2020-01-16 9681.  9681.  9656      9640   9622. 
##  7 BALKR~ Balkrishn~ 2020-01-16 1112.  1112.  1096      1107.  1103. 
##  8 BCP    B.C. Powe~ 2020-01-16   20.2   20.2   19.0      20.0   19.6
##  9 BERGE~ Berger Pa~ 2020-01-16  556.   556.   554.      550    547. 
## 10 BHART~ Bharti Ai~ 2019-12-02  499.   499.   493.      486.   474. 
## # ... with 45 more rows, and 2 more variables: change <dbl>, pChange <dbl>
…
