…
check whether the following years were leap years

2018

2016

Case Study

Throughout the tutorial, we will work on a case study related to transactions of an imaginary trading company. The data set includes information about invoice and payment dates.

Data

transact <- readr::read_csv('https://raw.githubusercontent.com/rsquaredacademy/datasets/master/transact.csv')

## # A tibble: 2,466 x 3
##    Invoice    Due        Payment   
##    <date>     <date>     <date>    
##  1 2013-01-02 2013-02-01 2013-01-15
##  2 2013-01-26 2013-02-25 2013-03-03
##  3 2013-07-03 2013-08-02 2013-07-08
##  4 2013-02-10 2013-03-12 2013-03-17
##  5 2012-10-25 2012-11-24 2012-11-28
##  6 2012-01-27 2012-02-26 2012-02-22
##  7 2013-08-13 2013-09-12 2013-09-09
##  8 2012-12-16 2013-01-15 2013-01-12
##  9 2012-05-14 2012-06-13 2012-07-01
## 10 2013-07-01 2013-07-31 2013-07-26
## # ... with 2,456 more rows
…
Case Study

Compute days to settle invoice

Let us estimate the number of days to settle the invoice by subtracting the
date of invoice from the date of payment.

transact %>%
  mutate(
    days_to_pay = Payment - Invoice
  )

## # A tibble: 2,466 x 4
##    Invoice    Due        Payment    days_to_pay
##    <date>     <date>     <date>     <drtn>     
##  1 2013-01-02 2013-02-01 2013-01-15 13 days    
##  2 2013-01-26 2013-02-25 2013-03-03 36 days    
##  3 2013-07-03 2013-08-02 2013-07-08  5 days    
##  4 2013-02-10 2013-03-12 2013-03-17 35 days    
##  5 2012-10-25 2012-11-24 2012-11-28 34 days    
##  6 2012-01-27 2012-02-26 2012-02-22 26 days    
##  7 2013-08-13 2013-09-12 2013-09-09 27 days    
##  8 2012-12-16 2013-01-15 2013-01-12 27 days    
##  9 2012-05-14 2012-06-13 2012-07-01 48 days    
## 10 2013-07-01 2013-07-31 2013-07-26 25 days    
## # ... with 2,456 more rows
…
How many of the invoices were settled post the due date? We can find this by:

subtracting the due date from the payment date

counting the number of rows where delay > 0

transact %>%
  mutate(
    delay = Payment - Due
  ) %>%
  filter(delay > 0) %>% 
  count(delay)

## # A tibble: 36 x 2
##    delay       n
##    <drtn>  <int>
##  1  1 days    61
##  2  2 days    65
##  3  3 days    51
##  4  4 days    62
##  5  5 days    69
##  6  6 days    56
##  7  7 days    55
##  8  8 days    49
##  9  9 days    38
## 10 10 days    33
## # ... with 26 more rows
…
Case Study

Extract Date, Month & Year from Due Date

Let us now extract the date, month and year from the Due column.

transact %>%
  mutate(
    due_day   = day(Due),
    due_month = month(Due),
    due_year  = year(Due)
  )

## # A tibble: 2,466 x 6
##    Invoice    Due        Payment    due_day due_month due_year
##    <date>     <date>     <date>       <int>     <dbl>    <dbl>
##  1 2013-01-02 2013-02-01 2013-01-15       1         2     2013
##  2 2013-01-26 2013-02-25 2013-03-03      25         2     2013
##  3 2013-07-03 2013-08-02 2013-07-08       2         8     2013
##  4 2013-02-10 2013-03-12 2013-03-17      12         3     2013
##  5 2012-10-25 2012-11-24 2012-11-28      24        11     2012
##  6 2012-01-27 2012-02-26 2012-02-22      26         2     2012
##  7 2013-08-13 2013-09-12 2013-09-09      12         9     2013
##  8 2012-12-16 2013-01-15 2013-01-12      15         1     2013
##  9 2012-05-14 2012-06-13 2012-07-01      13         6     2012
## 10 2013-07-01 2013-07-31 2013-07-26      31         7     2013
## # ... with 2,456 more rows
…
another interval for due_next and the payment date

if the intervals overlap, the payment was made within the due date

transact %>%
  mutate(
    inv_due_interval = interval(Invoice, Due),
    due_next         = Due + days(1),
    due_pay_interval = interval(due_next, Payment),
    overlaps         = int_overlaps(inv_due_interval, due_pay_interval)
  ) %>%
  select(Invoice, Due, Payment, overlaps)

## # A tibble: 2,466 x 4
##    Invoice    Due        Payment    overlaps
##    <date>     <date>     <date>     <lgl>   
##  1 2013-01-02 2013-02-01 2013-01-15 TRUE    
##  2 2013-01-26 2013-02-25 2013-03-03 FALSE   
##  3 2013-07-03 2013-08-02 2013-07-08 TRUE    
##  4 2013-02-10 2013-03-12 2013-03-17 FALSE   
##  5 2012-10-25 2012-11-24 2012-11-28 FALSE   
##  6 2012-01-27 2012-02-26 2012-02-22 TRUE    
##  7 2013-08-13 2013-09-12 2013-09-09 TRUE    
##  8 2012-12-16 2013-01-15 2013-01-12 TRUE    
##  9 2012-05-14 2012-06-13 2012-07-01 FALSE   
## 10 2013-07-01 2013-07-31 2013-07-26 TRUE    
## # ... with 2,456 more rows

Below we show another method to count the number of invoices paid within the
due date. Instead of using days to change the due date, we use int_shift
to shift it by 1 day.

transact %>%
  mutate(
    inv_due_interval = interval(Invoice, Due),
    due_pay_interval = interval(Due, Payment),  
    due_pay_next     = int_shift(due_pay_interval, by = days(1)),
    overlaps         = int_overlaps(inv_due_interval, due_pay_next)
  ) %>%
  select(Invoice, Due, Payment, overlaps)

## # A tibble: 2,466 x 4
##    Invoice    Due        Payment    overlaps
##    <date>     <date>     <date>     <lgl>   
##  1 2013-01-02 2013-02-01 2013-01-15 TRUE    
##  2 2013-01-26 2013-02-25 2013-03-03 FALSE   
##  3 2013-07-03 2013-08-02 2013-07-08 TRUE    
##  4 2013-02-10 2013-03-12 2013-03-17 FALSE   
##  5 2012-10-25 2012-11-24 2012-11-28 FALSE   
##  6 2012-01-27 2012-02-26 2012-02-22 TRUE    
##  7 2013-08-13 2013-09-12 2013-09-09 TRUE    
##  8 2012-12-16 2013-01-15 2013-01-12 TRUE    
##  9 2012-05-14 2012-06-13 2012-07-01 FALSE   
## 10 2013-07-01 2013-07-31 2013-07-26 TRUE    
## # ... with 2,456 more rows

You might be thinking why we incremented the due date by a day before creating
the interval between the due day and the payment day. If we do not increment,
both the intervals will share a common date i.e. the due date and they will
always overlap as shown below:

transact %>%
  mutate(
    inv_due_interval = interval(Invoice, Due),
    due_pay_interval = interval(Due, Payment),
    overlaps         = int_overlaps(inv_due_interval, due_pay_interval)
  ) %>%
  select(Invoice, Due, Payment, overlaps)

## # A tibble: 2,466 x 4
##    Invoice    Due        Payment    overlaps
##    <date>     <date>     <date>     <lgl>   
##  1 2013-01-02 2013-02-01 2013-01-15 TRUE    
##  2 2013-01-26 2013-02-25 2013-03-03 TRUE    
##  3 2013-07-03 2013-08-02 2013-07-08 TRUE    
##  4 2013-02-10 2013-03-12 2013-03-17 TRUE    
##  5 2012-10-25 2012-11-24 2012-11-28 TRUE    
##  6 2012-01-27 2012-02-26 2012-02-22 TRUE    
##  7 2013-08-13 2013-09-12 2013-09-09 TRUE    
##  8 2012-12-16 2013-01-15 2013-01-12 TRUE    
##  9 2012-05-14 2012-06-13 2012-07-01 TRUE    
## 10 2013-07-01 2013-07-31 2013-07-26 TRUE    
## # ... with 2,456 more rows
…
Let us use %within% to count the number of invoices that were settled within
the due date. We will do this by:

creating an interval for the invoice and due date

check if the payment date falls within the above interval

transact %>%
  mutate(
    inv_due_interval = interval(Invoice, Due),
    overlaps         = Payment %within% inv_due_interval
  ) %>%
  select(Due, Payment, overlaps)

## # A tibble: 2,466 x 3
##    Due        Payment    overlaps
##    <date>     <date>     <lgl>   
##  1 2013-02-01 2013-01-15 TRUE    
##  2 2013-02-25 2013-03-03 FALSE   
##  3 2013-08-02 2013-07-08 TRUE    
##  4 2013-03-12 2013-03-17 FALSE   
##  5 2012-11-24 2012-11-28 FALSE   
##  6 2012-02-26 2012-02-22 TRUE    
##  7 2013-09-12 2013-09-09 TRUE    
##  8 2013-01-15 2013-01-12 TRUE    
##  9 2012-06-13 2012-07-01 FALSE   
## 10 2013-07-31 2013-07-26 TRUE    
## # ... with 2,456 more rows
…
