…
In previous versions, rfm_segment() would overwrite a segment if the intervals used to define the segment was a subset of another segment. It was expected that the end user would be careful to ensure that the intervals for each segment would be unique and not a subset of any other segment. You can see the example here.

We are grateful to @leungi for bringing this to our attention and also for fixing it. Now, rfm_segment() does not overwrite
the segments even if the intervals for one segment is a subset of another.

# analysis date
analysis_date <- lubridate::as_date("2006-12-31")

# rfm score
rfm_result <- rfm_table_order(rfm_data_orders, customer_id, order_date,
                              revenue, analysis_date)

rfm_result

## # A tibble: 995 x 9
##    customer_id date_most_recent recency_days transaction_cou~ amount
##    <chr>       <date>                  <dbl>            <dbl>  <dbl>
##  1 Abbey O'Re~ 2006-06-09                205                6    472
##  2 Add Senger  2006-08-13                140                3    340
##  3 Aden Lesch~ 2006-06-20                194                4    405
##  4 Admiral Se~ 2006-08-21                132                5    448
##  5 Agness O'K~ 2006-10-02                 90                9    843
##  6 Aileen Bar~ 2006-10-08                 84                9    763
##  7 Ailene Her~ 2006-03-25                281                8    699
##  8 Aiyanna Br~ 2006-04-29                246                4    157
##  9 Ala Schmid~ 2006-01-16                349                3    363
## 10 Alannah Bo~ 2005-04-21                619                4    196
## # ... with 985 more rows, and 4 more variables: recency_score <int>,
## #   frequency_score <int>, monetary_score <int>, rfm_score <dbl>
…
If you look at the above output, we have 5 bins/scores and there are six different values. Let us focus on the monetary_* columns in the threshold table. The lower threshold of the first bin and the upper threshold of the last bin are the min and max values form the revenue column of rfm_data_orders and the rest of the values are returned by the quantile() function.

revenue <- 
  rfm_data_orders %>% 
  group_by(customer_id) %>% 
  summarize(total = sum(revenue))

## `summarise()` ungrouping (override with `.groups` argument)

# revenue at customer level
revenue

## # A tibble: 995 x 2
##    customer_id        total
##  * <chr>              <dbl>
##  1 Abbey O'Reilly DVM   472
##  2 Add Senger           340
##  3 Aden Lesch Sr.       405
##  4 Admiral Senger       448
##  5 Agness O'Keefe       843
##  6 Aileen Barton        763
##  7 Ailene Hermann       699
##  8 Aiyanna Bruen PhD    157
##  9 Ala Schmidt DDS      363
## 10 Alannah Borer        196
## # ... with 985 more rows
…
Left-closed, right-open: [ a , b ) = { x ∣ a ≤ x < b }

Since rfm uses left closed intervals to generate the scores, we add 1 to all values except the minimum value. Now, let us recreate the RFM scores using custom threshold instead of quantiles.

rfm_table_order(rfm_data_orders, 
                customer_id, 
                order_date, 
                revenue,
                analysis_date, 
                recency_bins = c(115, 181, 297, 482),
                frequency_bins = c(4, 5, 6, 8), 
                monetary_bins = c(256, 382, 506, 666))

## # A tibble: 995 x 9
##    customer_id date_most_recent recency_days transaction_cou~ amount
##    <chr>       <date>                  <dbl>            <dbl>  <dbl>
##  1 Abbey O'Re~ 2006-06-09                205                6    472
##  2 Add Senger  2006-08-13                140                3    340
##  3 Aden Lesch~ 2006-06-20                194                4    405
##  4 Admiral Se~ 2006-08-21                132                5    448
##  5 Agness O'K~ 2006-10-02                 90                9    843
##  6 Aileen Bar~ 2006-10-08                 84                9    763
##  7 Ailene Her~ 2006-03-25                281                8    699
##  8 Aiyanna Br~ 2006-04-29                246                4    157
##  9 Ala Schmid~ 2006-01-16                349                3    363
## 10 Alannah Bo~ 2005-04-21                619                4    196
## # ... with 985 more rows, and 4 more variables: recency_score <int>,
## #   frequency_score <int>, monetary_score <int>, rfm_score <dbl>
…
