…
check whether the following years were leap years

2018

2016

Case Study

Throughout the tutorial, we will work on a case study related to transactions of an imaginary trading company. The data set includes information about invoice and payment dates.

Data

transact <- readr::read_csv('https://raw.githubusercontent.com/rsquaredacademy/datasets/master/transact.csv')

## # A tibble: 2,466 x 3
##    Invoice    Due        Payment   
##    <date>     <date>     <date>    
##  1 2013-01-02 2013-02-01 2013-01-15
##  2 2013-01-26 2013-02-25 2013-03-03
##  3 2013-07-03 2013-08-02 2013-07-08
##  4 2013-02-10 2013-03-12 2013-03-17
##  5 2012-10-25 2012-11-24 2012-11-28
##  6 2012-01-27 2012-02-26 2012-02-22
##  7 2013-08-13 2013-09-12 2013-09-09
##  8 2012-12-16 2013-01-15 2013-01-12
##  9 2012-05-14 2012-06-13 2012-07-01
## 10 2013-07-01 2013-07-31 2013-07-26
## # ... with 2,456 more rows
…
